checkpoint5/mediociones/regulacion_carga_180_entrada_14_76V.csv

#timebase=4000000000(ps)
,#voltbase=5000000(mv/100)
#size=4000
1.00E-04,0.000
2.00E-04,0.000
3.00E-04,0.000
4.00E-04,0.000
5.00E-04,0.000
6.00E-04,0.200
7.00E-04,0.200
8.00E-04,0.200
9.00E-04,-0.200
1.00E-03,0.200
1.10E-03,0.200
1.20E-03,0.000
1.30E-03,0.200
1.40E-03,0.000
1.50E-03,0.000
1.60E-03,0.000
1.70E-03,0.000
1.80E-03,-0.200
1.90E-03,0.000
2.00E-03,0.200
2.10E-03,0.200
2.20E-03,0.200
2.30E-03,0.200
2.40E-03,-0.200
2.50E-03,-0.200
2.60E-03,0.000
2.70E-03,0.000
2.80E-03,0.000
2.90E-03,0.000
3.00E-03,0.000
3.10E-03,0.000
3.20E-03,0.000
3.30E-03,0.000
3.40E-03,0.000
3.50E-03,-0.200
3.60E-03,0.000
3.70E-03,0.200
3.80E-03,0.200
3.90E-03,0.200
4.00E-03,0.000
4.10E-03,0.000
4.20E-03,0.000
4.30E-03,0.000
4.40E-03,0.000
4.50E-03,0.000
4.60E-03,0.000
4.70E-03,0.200
4.80E-03,0.200
4.90E-03,-0.200
5.00E-03,0.000
5.10E-03,0.000
5.20E-03,0.000
5.30E-03,-0.200
5.40E-03,-0.200
5.50E-03,0.000
5.60E-03,0.000
5.70E-03,0.000
5.80E-03,0.000
5.90E-03,0.000
6.00E-03,0.000
6.10E-03,0.000
6.20E-03,0.000
6.30E-03,0.000
6.40E-03,0.000
6.50E-03,0.000
6.60E-03,0.000
6.70E-03,-0.200
6.80E-03,0.000
6.90E-03,0.000
7.00E-03,0.000
7.10E-03,0.000
7.20E-03,0.200
7.30E-03,0.200
7.40E-03,0.000
7.50E-03,-0.200
7.60E-03,0.000
7.70E-03,0.400
7.80E-03,0.400
7.90E-03,0.000
8.00E-03,-0.200
8.10E-03,0.200
8.20E-03,0.200
8.30E-03,0.400
8.40E-03,0.400
8.50E-03,0.200
8.60E-03,0.400
8.70E-03,0.000
8.80E-03,-0.200
8.90E-03,0.000
9.00E-03,0.200
9.10E-03,0.000
9.20E-03,0.200
9.30E-03,0.200
9.40E-03,0.000
9.50E-03,-0.200
9.60E-03,0.200
9.70E-03,0.000
9.80E-03,0.200
9.90E-03,0.200
1.00E-02,0.000
1.01E-02,0.000
1.02E-02,0.000
1.03E-02,0.000
1.04E-02,0.200
1.05E-02,-0.200
1.06E-02,0.000
1.07E-02,0.200
1.08E-02,-0.200
1.09E-02,-0.200
1.10E-02,0.000
1.11E-02,0.000
1.12E-02,0.200
1.13E-02,0.000
1.14E-02,0.200
1.15E-02,0.000
1.16E-02,0.200
1.17E-02,0.000
1.18E-02,0.000
1.19E-02,0.200
1.20E-02,0.000
1.21E-02,-0.200
1.22E-02,0.000
1.23E-02,0.000
1.24E-02,0.000
1.25E-02,0.000
1.26E-02,0.200
1.27E-02,0.000
1.28E-02,-0.200
1.29E-02,0.000
1.30E-02,-0.200
1.31E-02,0.000
1.32E-02,0.200
1.33E-02,-0.200
1.34E-02,0.000
1.35E-02,0.000
1.36E-02,0.000
1.37E-02,0.000
1.38E-02,0.000
1.39E-02,0.200
1.40E-02,0.000
1.41E-02,0.000
1.42E-02,-0.200
1.43E-02,0.000
1.44E-02,-0.200
1.45E-02,0.000
1.46E-02,-0.200
1.47E-02,0.000
1.48E-02,-0.200
1.49E-02,0.000
1.50E-02,0.000
1.51E-02,-0.200
1.52E-02,-0.200
1.53E-02,0.000
1.54E-02,0.200
1.55E-02,0.200
1.56E-02,-0.200
1.57E-02,0.200
1.58E-02,0.000
1.59E-02,0.000
1.60E-02,-0.200
1.61E-02,0.000
1.62E-02,0.000
1.63E-02,0.200
1.64E-02,0.000
1.65E-02,0.000
1.66E-02,0.000
1.67E-02,0.000
1.68E-02,0.000
1.69E-02,0.000
1.70E-02,-0.200
1.71E-02,0.000
1.72E-02,0.200
1.73E-02,0.000
1.74E-02,0.000
1.75E-02,0.400
1.76E-02,0.200
1.77E-02,-0.200
1.78E-02,-0.200
1.79E-02,0.200
1.80E-02,0.000
1.81E-02,0.000
1.82E-02,0.000
1.83E-02,0.200
1.84E-02,0.000
1.85E-02,0.000
1.86E-02,0.000
1.87E-02,0.200
1.88E-02,0.200
1.89E-02,0.000
1.90E-02,0.000
1.91E-02,0.000
1.92E-02,0.000
1.93E-02,-0.200
1.94E-02,0.000
1.95E-02,-0.200
1.96E-02,0.000
1.97E-02,0.200
1.98E-02,0.200
1.99E-02,0.200
2.00E-02,0.200
2.01E-02,0.400
2.02E-02,0.200
2.03E-02,0.400
2.04E-02,-0.200
2.05E-02,0.000
2.06E-02,0.200
2.07E-02,0.200
2.08E-02,-0.200
2.09E-02,0.200
2.10E-02,0.200
2.11E-02,0.000
2.12E-02,0.200
2.13E-02,-0.200
2.14E-02,0.200
2.15E-02,0.000
2.16E-02,0.000
2.17E-02,0.200
2.18E-02,-0.200
2.19E-02,0.200
2.20E-02,0.000
2.21E-02,0.000
2.22E-02,0.000
2.23E-02,0.000
2.24E-02,0.200
2.25E-02,0.000
2.26E-02,0.200
2.27E-02,0.000
2.28E-02,-0.200
2.29E-02,0.000
2.30E-02,0.200
2.31E-02,0.000
2.32E-02,0.000
2.33E-02,0.000
2.34E-02,0.200
2.35E-02,-0.200
2.36E-02,-0.200
2.37E-02,0.000
2.38E-02,0.000
2.39E-02,0.000
2.40E-02,0.000
2.41E-02,0.400
2.42E-02,0.000
2.43E-02,-0.200
2.44E-02,0.000
2.45E-02,0.000
2.46E-02,0.000
2.47E-02,0.000
2.48E-02,0.000
2.49E-02,0.000
2.50E-02,0.200
2.51E-02,0.000
2.52E-02,0.200
2.53E-02,-0.200
2.54E-02,0.000
2.55E-02,0.000
2.56E-02,0.000
2.57E-02,0.200
2.58E-02,0.000
2.59E-02,0.000
2.60E-02,0.200
2.61E-02,-0.200
2.62E-02,-0.200
2.63E-02,0.000
2.64E-02,-0.200
2.65E-02,-0.200
2.66E-02,0.000
2.67E-02,0.000
2.68E-02,0.000
2.69E-02,0.000
2.70E-02,0.000
2.71E-02,0.000
2.72E-02,0.200
2.73E-02,0.200
2.74E-02,0.000
2.75E-02,-0.200
2.76E-02,0.000
2.77E-02,0.000
2.78E-02,0.000
2.79E-02,0.000
2.80E-02,0.000
2.81E-02,0.000
2.82E-02,0.200
2.83E-02,0.200
2.84E-02,0.200
2.85E-02,0.000
2.86E-02,0.000
2.87E-02,0.000
2.88E-02,0.000
2.89E-02,0.000
2.90E-02,0.000
2.91E-02,0.000
2.92E-02,0.000
2.93E-02,0.200
2.94E-02,0.400
2.95E-02,0.200
2.96E-02,0.400
2.97E-02,-0.200
2.98E-02,0.000
2.99E-02,0.000
3.00E-02,0.000
3.01E-02,0.200
3.02E-02,0.000
3.03E-02,0.000
3.04E-02,0.000
3.05E-02,0.000
3.06E-02,0.200
3.07E-02,0.400
3.08E-02,0.200
3.09E-02,0.200
3.10E-02,-0.200
3.11E-02,0.000
3.12E-02,0.000
3.13E-02,0.000
3.14E-02,0.200
3.15E-02,0.400
3.16E-02,-0.200
3.17E-02,0.200
3.18E-02,0.200
3.19E-02,0.000
3.20E-02,-0.200
3.21E-02,-0.200
3.22E-02,0.000
3.23E-02,0.200
3.24E-02,-0.200
3.25E-02,-0.200
3.26E-02,0.200
3.27E-02,0.000
3.28E-02,-0.200
3.29E-02,0.000
3.30E-02,-0.200
3.31E-02,0.200
3.32E-02,0.000
3.33E-02,0.000
3.34E-02,-0.200
3.35E-02,0.200
3.36E-02,0.200
3.37E-02,0.400
3.38E-02,-0.200
3.39E-02,0.000
3.40E-02,0.200
3.41E-02,0.200
3.42E-02,0.200
3.43E-02,0.000
3.44E-02,0.000
3.45E-02,0.000
3.46E-02,-0.200
3.47E-02,0.000
3.48E-02,0.000
3.49E-02,0.000
3.50E-02,0.000
3.51E-02,0.000
3.52E-02,-0.200
3.53E-02,0.000
3.54E-02,0.000
3.55E-02,0.000
3.56E-02,0.000
3.57E-02,0.200
3.58E-02,0.000
3.59E-02,0.200
3.60E-02,0.400
3.61E-02,-0.200
3.62E-02,0.000
3.63E-02,0.000
3.64E-02,0.000
3.65E-02,0.000
3.66E-02,-0.200
3.67E-02,0.200
3.68E-02,0.000
3.69E-02,0.000
3.70E-02,0.200
3.71E-02,-0.200
3.72E-02,0.000
3.73E-02,-0.200
3.74E-02,0.000
3.75E-02,0.200
3.76E-02,0.000
3.77E-02,0.000
3.78E-02,0.000
3.79E-02,-0.200
3.80E-02,0.000
3.81E-02,0.000
3.82E-02,0.200
3.83E-02,-0.200
3.84E-02,0.200
3.85E-02,0.000
3.86E-02,0.000
3.87E-02,0.000
3.88E-02,-0.200
3.89E-02,0.200
3.90E-02,-0.200
3.91E-02,-0.200
3.92E-02,0.000
3.93E-02,0.000
3.94E-02,0.200
3.95E-02,0.000
3.96E-02,0.000
3.97E-02,0.200
3.98E-02,-0.200
3.99E-02,-0.200
4.00E-02,0.000
4.01E-02,0.000
4.02E-02,0.000
4.03E-02,-0.200
4.04E-02,0.000
4.05E-02,0.000
4.06E-02,0.200
4.07E-02,0.200
4.08E-02,0.000
4.09E-02,0.000
4.10E-02,0.200
4.11E-02,0.400
4.12E-02,0.200
4.13E-02,-0.200
4.14E-02,0.000
4.15E-02,0.000
4.16E-02,0.000
4.17E-02,0.000
4.18E-02,0.000
4.19E-02,0.200
4.20E-02,0.000
4.21E-02,0.000
4.22E-02,0.000
4.23E-02,0.000
4.24E-02,0.200
4.25E-02,0.200
4.26E-02,-0.200
4.27E-02,0.000
4.28E-02,0.000
4.29E-02,0.000
4.30E-02,0.200
4.31E-02,0.400
4.32E-02,0.200
4.33E-02,-0.200
4.34E-02,0.000
4.35E-02,0.200
4.36E-02,0.000
4.37E-02,0.200
4.38E-02,0.000
4.39E-02,0.200
4.40E-02,0.000
4.41E-02,-0.200
4.42E-02,0.000
4.43E-02,0.400
4.44E-02,0.400
4.45E-02,0.200
4.46E-02,-0.200
4.47E-02,-0.200
4.48E-02,0.200
4.49E-02,0.400
4.50E-02,0.200
4.51E-02,0.200
4.52E-02,0.200
4.53E-02,-0.200
4.54E-02,0.000
4.55E-02,0.000
4.56E-02,-0.200
4.57E-02,0.000
4.58E-02,-0.200
4.59E-02,-0.200
4.60E-02,0.000
4.61E-02,-0.200
4.62E-02,-0.200
4.63E-02,0.000
4.64E-02,-0.200
4.65E-02,0.200
4.66E-02,0.000
4.67E-02,0.000
4.68E-02,0.000
4.69E-02,0.200
4.70E-02,0.000
4.71E-02,0.000
4.72E-02,0.000
4.73E-02,0.200
4.74E-02,0.000
4.75E-02,0.000
4.76E-02,-0.200
4.77E-02,-0.200
4.78E-02,0.000
4.79E-02,0.200
4.80E-02,0.200
4.81E-02,-0.200
4.82E-02,0.000
4.83E-02,0.000
4.84E-02,0.200
4.85E-02,0.000
4.86E-02,-0.200
4.87E-02,0.000
4.88E-02,0.400
4.89E-02,-0.200
4.90E-02,-0.200
4.91E-02,0.000
4.92E-02,0.000
4.93E-02,0.000
4.94E-02,0.000
4.95E-02,0.000
4.96E-02,0.000
4.97E-02,0.200
4.98E-02,0.000
4.99E-02,0.000
5.00E-02,0.000
5.01E-02,0.000
5.02E-02,-0.200
5.03E-02,0.000
5.04E-02,0.000
5.05E-02,0.000
5.06E-02,0.000
5.07E-02,0.000
5.08E-02,0.000
5.09E-02,0.200
5.10E-02,0.000
5.11E-02,0.000
5.12E-02,-0.200
5.13E-02,-0.200
5.14E-02,0.000
5.15E-02,0.000
5.16E-02,0.200
5.17E-02,0.000
5.18E-02,-0.200
5.19E-02,0.200
5.20E-02,-0.200
5.21E-02,0.000
5.22E-02,0.200
5.23E-02,0.200
5.24E-02,0.200
5.25E-02,0.400
5.26E-02,-0.200
5.27E-02,-0.200
5.28E-02,0.200
5.29E-02,-0.200
5.30E-02,0.000
5.31E-02,-0.200
5.32E-02,-0.200
5.33E-02,0.200
5.34E-02,0.000
5.35E-02,0.000
5.36E-02,0.000
5.37E-02,0.000
5.38E-02,0.000
5.39E-02,0.000
5.40E-02,0.000
5.41E-02,0.000
5.42E-02,0.200
5.43E-02,-0.200
5.44E-02,-0.200
5.45E-02,0.000
5.46E-02,0.000
5.47E-02,0.000
5.48E-02,-0.200
5.49E-02,0.200
5.50E-02,0.200
5.51E-02,0.400
5.52E-02,0.200
5.53E-02,0.200
5.54E-02,-0.200
5.55E-02,-0.200
5.56E-02,0.000
5.57E-02,-0.200
5.58E-02,0.000
5.59E-02,0.000
5.60E-02,0.000
5.61E-02,0.200
5.62E-02,0.000
5.63E-02,0.200
5.64E-02,0.000
5.65E-02,0.000
5.66E-02,0.000
5.67E-02,0.200
5.68E-02,0.000
5.69E-02,0.000
5.70E-02,-0.200
5.71E-02,0.200
5.72E-02,-0.200
5.73E-02,0.000
5.74E-02,0.000
5.75E-02,0.000
5.76E-02,0.200
5.77E-02,0.000
5.78E-02,0.400
5.79E-02,0.200
5.80E-02,0.000
5.81E-02,-0.200
5.82E-02,0.000
5.83E-02,-0.200
5.84E-02,0.000
5.85E-02,0.200
5.86E-02,0.400
5.87E-02,-0.200
5.88E-02,-0.200
5.89E-02,0.000
5.90E-02,-0.200
5.91E-02,0.000
5.92E-02,0.000
5.93E-02,0.200
5.94E-02,0.000
5.95E-02,0.000
5.96E-02,-0.200
5.97E-02,0.000
5.98E-02,0.000
5.99E-02,0.200
6.00E-02,0.000
6.01E-02,0.000
6.02E-02,0.000
6.03E-02,0.000
6.04E-02,0.000
6.05E-02,0.000
6.06E-02,0.000
6.07E-02,-0.200
6.08E-02,0.000
6.09E-02,0.000
6.10E-02,0.000
6.11E-02,0.200
6.12E-02,0.200
6.13E-02,-0.200
6.14E-02,0.200
6.15E-02,0.000
6.16E-02,0.000
6.17E-02,0.200
6.18E-02,0.200
6.19E-02,0.000
6.20E-02,0.200
6.21E-02,0.000
6.22E-02,0.000
6.23E-02,0.000
6.24E-02,0.000
6.25E-02,0.200
6.26E-02,0.000
6.27E-02,0.200
6.28E-02,0.000
6.29E-02,-0.200
6.30E-02,0.200
6.31E-02,0.000
6.32E-02,0.200
6.33E-02,-0.200
6.34E-02,-0.200
6.35E-02,0.000
6.36E-02,0.200
6.37E-02,-0.200
6.38E-02,0.000
6.39E-02,0.000
6.40E-02,0.200
6.41E-02,0.000
6.42E-02,-0.200
6.43E-02,0.000
6.44E-02,0.200
6.45E-02,-0.200
6.46E-02,0.200
6.47E-02,0.000
6.48E-02,0.000
6.49E-02,-0.200
6.50E-02,0.000
6.51E-02,0.200
6.52E-02,0.200
6.53E-02,0.000
6.54E-02,0.000
6.55E-02,0.000
6.56E-02,0.000
6.57E-02,0.000
6.58E-02,0.000
6.59E-02,0.000
6.60E-02,0.200
6.61E-02,0.000
6.62E-02,0.000
6.63E-02,0.000
6.64E-02,-0.200
6.65E-02,0.000
6.66E-02,0.200
6.67E-02,0.200
6.68E-02,0.200
6.69E-02,-0.200
6.70E-02,-0.200
6.71E-02,0.000
6.72E-02,-0.200
6.73E-02,-0.200
6.74E-02,0.200
6.75E-02,-0.200
6.76E-02,0.000
6.77E-02,0.000
6.78E-02,0.000
6.79E-02,0.000
6.80E-02,0.200
6.81E-02,-0.200
6.82E-02,-0.200
6.83E-02,0.200
6.84E-02,0.000
6.85E-02,0.000
6.86E-02,0.000
6.87E-02,0.000
6.88E-02,0.200
6.89E-02,0.200
6.90E-02,-0.200
6.91E-02,-0.200
6.92E-02,0.000
6.93E-02,0.200
6.94E-02,0.200
6.95E-02,-0.200
6.96E-02,0.000
6.97E-02,0.200
6.98E-02,0.000
6.99E-02,0.000
7.00E-02,0.000
7.01E-02,0.000
7.02E-02,0.000
7.03E-02,0.000
7.04E-02,0.200
7.05E-02,-0.200
7.06E-02,0.000
7.07E-02,0.000
7.08E-02,0.000
7.09E-02,-0.200
7.10E-02,0.000
7.11E-02,0.000
7.12E-02,0.000
7.13E-02,0.000
7.14E-02,0.000
7.15E-02,0.000
7.16E-02,-0.200
7.17E-02,0.200
7.18E-02,0.000
7.19E-02,0.000
7.20E-02,0.400
7.21E-02,0.200
7.22E-02,0.200
7.23E-02,0.200
7.24E-02,-0.200
7.25E-02,-0.200
7.26E-02,0.000
7.27E-02,-0.200
7.28E-02,0.000
7.29E-02,-0.200
7.30E-02,0.000
7.31E-02,0.200
7.32E-02,0.000
7.33E-02,0.400
7.34E-02,-0.200
7.35E-02,-0.200
7.36E-02,0.000
7.37E-02,0.000
7.38E-02,0.200
7.39E-02,0.200
7.40E-02,0.400
7.41E-02,0.400
7.42E-02,-0.200
7.43E-02,0.200
7.44E-02,0.200
7.45E-02,0.000
7.46E-02,-0.200
7.47E-02,0.000
7.48E-02,0.000
7.49E-02,0.000
7.50E-02,0.000
7.51E-02,0.200
7.52E-02,0.200
7.53E-02,0.000
7.54E-02,-0.200
7.55E-02,0.000
7.56E-02,0.200
7.57E-02,0.200
7.58E-02,0.400
7.59E-02,0.400
7.60E-02,0.200
7.61E-02,0.400
7.62E-02,0.200
7.63E-02,0.400
7.64E-02,-0.200
7.65E-02,0.000
7.66E-02,0.200
7.67E-02,0.200
7.68E-02,-0.200
7.69E-02,-0.200
7.70E-02,0.000
7.71E-02,0.000
7.72E-02,0.000
7.73E-02,0.200
7.74E-02,0.200
7.75E-02,0.200
7.76E-02,0.000
7.77E-02,0.200
7.78E-02,0.000
7.79E-02,0.000
7.80E-02,0.000
7.81E-02,0.000
7.82E-02,0.000
7.83E-02,0.000
7.84E-02,0.200
7.85E-02,0.000
7.86E-02,0.000
7.87E-02,0.200
7.88E-02,0.000
7.89E-02,0.000
7.90E-02,0.000
7.91E-02,0.000
7.92E-02,0.000
7.93E-02,0.000
7.94E-02,0.000
7.95E-02,0.000
7.96E-02,0.000
7.97E-02,0.000
7.98E-02,0.000
7.99E-02,0.000
8.00E-02,0.200
8.01E-02,0.000
8.02E-02,0.000
8.03E-02,0.000
8.04E-02,0.000
8.05E-02,0.400
8.06E-02,0.200
8.07E-02,0.200
8.08E-02,0.400
8.09E-02,0.400
8.10E-02,-0.200
8.11E-02,-0.200
8.12E-02,0.200
8.13E-02,0.000
8.14E-02,0.000
8.15E-02,0.000
8.16E-02,-0.200
8.17E-02,-0.200
8.18E-02,0.200
8.19E-02,-0.200
8.20E-02,0.000
8.21E-02,0.000
8.22E-02,0.200
8.23E-02,0.000
8.24E-02,0.000
8.25E-02,0.000
8.26E-02,0.200
8.27E-02,-0.200
8.28E-02,0.000
8.29E-02,0.000
8.30E-02,0.000
8.31E-02,0.200
8.32E-02,0.000
8.33E-02,-0.200
8.34E-02,0.200
8.35E-02,-0.200
8.36E-02,0.000
8.37E-02,0.000
8.38E-02,-0.200
8.39E-02,0.200
8.40E-02,0.200
8.41E-02,-0.200
8.42E-02,-0.200
8.43E-02,0.000
8.44E-02,0.000
8.45E-02,0.000
8.46E-02,-0.200
8.47E-02,-0.200
8.48E-02,0.000
8.49E-02,-0.200
8.50E-02,0.000
8.51E-02,0.200
8.52E-02,0.200
8.53E-02,0.200
8.54E-02,-0.200
8.55E-02,-0.200
8.56E-02,0.000
8.57E-02,0.200
8.58E-02,-0.200
8.59E-02,0.000
8.60E-02,0.000
8.61E-02,0.200
8.62E-02,0.200
8.63E-02,0.000
8.64E-02,0.000
8.65E-02,0.000
8.66E-02,-0.200
8.67E-02,0.000
8.68E-02,0.200
8.69E-02,0.200
8.70E-02,-0.200
8.71E-02,0.000
8.72E-02,0.000
8.73E-02,0.000
8.74E-02,0.000
8.75E-02,-0.200
8.76E-02,0.200
8.77E-02,0.000
8.78E-02,0.000
8.79E-02,0.000
8.80E-02,0.200
8.81E-02,0.000
8.82E-02,0.000
8.83E-02,0.000
8.84E-02,0.200
8.85E-02,0.000
8.86E-02,0.000
8.87E-02,0.000
8.88E-02,0.000
8.89E-02,0.200
8.90E-02,0.000
8.91E-02,-0.200
8.92E-02,0.000
8.93E-02,0.200
8.94E-02,0.000
8.95E-02,0.200
8.96E-02,0.000
8.97E-02,0.200
8.98E-02,0.200
8.99E-02,0.200
9.00E-02,-0.200
9.01E-02,0.200
9.02E-02,0.000
9.03E-02,0.000
9.04E-02,0.200
9.05E-02,-0.200
9.06E-02,-0.200
9.07E-02,0.000
9.08E-02,0.000
9.09E-02,0.000
9.10E-02,0.000
9.11E-02,0.200
9.12E-02,0.400
9.13E-02,0.200
9.14E-02,-0.200
9.15E-02,-0.200
9.16E-02,0.000
9.17E-02,-0.200
9.18E-02,0.000
9.19E-02,0.000
9.20E-02,0.000
9.21E-02,0.000
9.22E-02,0.200
9.23E-02,0.400
9.24E-02,0.200
9.25E-02,0.200
9.26E-02,-0.200
9.27E-02,0.200
9.28E-02,0.000
9.29E-02,0.000
9.30E-02,-0.200
9.31E-02,0.000
9.32E-02,0.200
9.33E-02,0.400
9.34E-02,0.200
9.35E-02,0.200
9.36E-02,-0.200
9.37E-02,-0.200
9.38E-02,0.000
9.39E-02,0.200
9.40E-02,0.200
9.41E-02,0.200
9.42E-02,-0.200
9.43E-02,0.000
9.44E-02,0.200
9.45E-02,0.000
9.46E-02,0.000
9.47E-02,-0.200
9.48E-02,0.000
9.49E-02,-0.200
9.50E-02,0.200
9.51E-02,0.000
9.52E-02,-0.200
9.53E-02,0.000
9.54E-02,0.400
9.55E-02,0.000
9.56E-02,0.000
9.57E-02,0.000
9.58E-02,0.000
9.59E-02,-0.200
9.60E-02,0.000
9.61E-02,0.000
9.62E-02,0.200
9.63E-02,-0.200
9.64E-02,0.000
9.65E-02,0.000
9.66E-02,0.000
9.67E-02,-0.200
9.68E-02,-0.200
9.69E-02,0.200
9.70E-02,0.200
9.71E-02,0.200
9.72E-02,-0.200
9.73E-02,-0.200
9.74E-02,0.000
9.75E-02,0.200
9.76E-02,-0.200
9.77E-02,0.000
9.78E-02,0.000
9.79E-02,0.000
9.80E-02,0.000
9.81E-02,-0.200
9.82E-02,0.000
9.83E-02,0.000
9.84E-02,0.000
9.85E-02,0.000
9.86E-02,0.200
9.87E-02,0.200
9.88E-02,-0.200
9.89E-02,0.000
9.90E-02,0.000
9.91E-02,0.000
9.92E-02,0.000
9.93E-02,0.000
9.94E-02,0.200
9.95E-02,-0.200
9.96E-02,-0.200
9.97E-02,0.000
9.98E-02,0.000
9.99E-02,0.000
1.00E-01,0.000
1.00E-01,0.000
1.00E-01,0.200
1.00E-01,0.000
1.00E-01,0.000
1.01E-01,0.000
1.01E-01,0.200
1.01E-01,0.200
1.01E-01,0.000
1.01E-01,0.000
1.01E-01,0.200
1.01E-01,0.000
1.01E-01,0.000
1.01E-01,0.200
1.01E-01,-0.200
1.02E-01,0.200
1.02E-01,-0.200
1.02E-01,0.000
1.02E-01,0.000
1.02E-01,0.200
1.02E-01,0.000
1.02E-01,0.200
1.02E-01,0.000
1.02E-01,-0.200
1.02E-01,0.000
1.02E-01,-0.200
1.03E-01,0.000
1.03E-01,0.000
1.03E-01,0.200
1.03E-01,0.000
1.03E-01,0.200
1.03E-01,0.200
1.03E-01,0.200
1.03E-01,-0.200
1.03E-01,-0.200
1.03E-01,0.200
1.04E-01,0.000
1.04E-01,0.000
1.04E-01,0.200
1.04E-01,0.000
1.04E-01,-0.200
1.04E-01,0.000
1.04E-01,0.200
1.04E-01,0.200
1.04E-01,-0.200
1.04E-01,0.000
1.05E-01,0.200
1.05E-01,0.000
1.05E-01,0.000
1.05E-01,0.000
1.05E-01,-0.200
1.05E-01,0.000
1.05E-01,-0.200
1.05E-01,0.000
1.05E-01,0.000
1.05E-01,0.000
1.06E-01,0.200
1.06E-01,0.000
1.06E-01,0.200
1.06E-01,0.200
1.06E-01,0.200
1.06E-01,-0.200
1.06E-01,-0.200
1.06E-01,0.000
1.06E-01,0.400
1.06E-01,0.200
1.07E-01,0.200
1.07E-01,-0.200
1.07E-01,-0.200
1.07E-01,0.000
1.07E-01,-0.200
1.07E-01,0.000
1.07E-01,0.200
1.07E-01,0.000
1.07E-01,-0.200
1.07E-01,0.000
1.08E-01,-0.200
1.08E-01,-0.200
1.08E-01,0.000
1.08E-01,-0.200
1.08E-01,0.200
1.08E-01,0.000
1.08E-01,0.000
1.08E-01,-0.200
1.08E-01,-0.200
1.08E-01,0.200
1.09E-01,0.200
1.09E-01,-0.200
1.09E-01,0.000
1.09E-01,0.000
1.09E-01,0.200
1.09E-01,0.000
1.09E-01,0.000
1.09E-01,0.000
1.09E-01,0.200
1.10E-01,0.000
1.10E-01,0.000
1.10E-01,-0.200
1.10E-01,0.000
1.10E-01,-0.200
1.10E-01,0.000
1.10E-01,0.000
1.10E-01,0.000
1.10E-01,0.200
1.10E-01,0.200
1.11E-01,0.000
1.11E-01,0.400
1.11E-01,0.200
1.11E-01,0.000
1.11E-01,0.000
1.11E-01,0.000
1.11E-01,0.000
1.11E-01,-0.200
1.11E-01,-0.200
1.11E-01,0.000
1.12E-01,0.000
1.12E-01,0.000
1.12E-01,0.000
1.12E-01,0.200
1.12E-01,-0.200
1.12E-01,-0.200
1.12E-01,0.000
1.12E-01,-0.200
1.12E-01,0.000
1.12E-01,0.000
1.13E-01,0.000
1.13E-01,-0.200
1.13E-01,-0.200
1.13E-01,0.000
1.13E-01,0.400
1.13E-01,-0.200
1.13E-01,-0.200
1.13E-01,0.200
1.13E-01,-0.200
1.13E-01,-0.200
1.14E-01,0.000
1.14E-01,0.000
1.14E-01,0.000
1.14E-01,0.000
1.14E-01,0.200
1.14E-01,0.000
1.14E-01,0.000
1.14E-01,0.200
1.14E-01,0.200
1.14E-01,-0.200
1.15E-01,0.000
1.15E-01,0.200
1.15E-01,0.000
1.15E-01,0.000
1.15E-01,0.000
1.15E-01,0.200
1.15E-01,-0.200
1.15E-01,0.000
1.15E-01,0.200
1.15E-01,0.000
1.16E-01,0.000
1.16E-01,0.000
1.16E-01,0.200
1.16E-01,0.200
1.16E-01,-0.200
1.16E-01,0.000
1.16E-01,0.000
1.16E-01,0.200
1.16E-01,0.000
1.16E-01,0.000
1.17E-01,0.000
1.17E-01,0.200
1.17E-01,0.200
1.17E-01,0.200
1.17E-01,-0.200
1.17E-01,0.000
1.17E-01,0.000
1.17E-01,0.200
1.17E-01,0.000
1.17E-01,-0.200
1.17E-01,0.000
1.18E-01,0.000
1.18E-01,0.000
1.18E-01,0.400
1.18E-01,0.200
1.18E-01,0.200
1.18E-01,0.200
1.18E-01,-0.200
1.18E-01,0.000
1.18E-01,0.000
1.18E-01,0.200
1.19E-01,0.000
1.19E-01,0.000
1.19E-01,0.000
1.19E-01,0.000
1.19E-01,0.000
1.19E-01,0.400
1.19E-01,-0.200
1.19E-01,-0.200
1.19E-01,0.000
1.19E-01,0.000
1.20E-01,0.000
1.20E-01,0.000
1.20E-01,0.000
1.20E-01,0.200
1.20E-01,0.200
1.20E-01,-0.200
1.20E-01,0.000
1.20E-01,0.200
1.20E-01,0.000
1.20E-01,0.000
1.21E-01,0.000
1.21E-01,-0.200
1.21E-01,0.000
1.21E-01,0.000
1.21E-01,0.000
1.21E-01,0.000
1.21E-01,-0.200
1.21E-01,-0.200
1.21E-01,0.000
1.21E-01,0.200
1.22E-01,0.000
1.22E-01,0.200
1.22E-01,0.000
1.22E-01,0.200
1.22E-01,-0.200
1.22E-01,0.000
1.22E-01,0.000
1.22E-01,-0.200
1.22E-01,0.000
1.22E-01,0.000
1.23E-01,-0.200
1.23E-01,0.200
1.23E-01,0.200
1.23E-01,0.200
1.23E-01,0.000
1.23E-01,0.000
1.23E-01,0.000
1.23E-01,0.000
1.23E-01,-0.200
1.23E-01,0.000
1.24E-01,0.000
1.24E-01,0.000
1.24E-01,0.200
1.24E-01,0.000
1.24E-01,-0.200
1.24E-01,0.000
1.24E-01,-0.200
1.24E-01,0.200
1.24E-01,-0.200
1.24E-01,0.000
1.25E-01,0.200
1.25E-01,-0.200
1.25E-01,0.000
1.25E-01,-0.200
1.25E-01,0.000
1.25E-01,0.000
1.25E-01,0.000
1.25E-01,0.000
1.25E-01,0.000
1.26E-01,0.000
1.26E-01,-0.200
1.26E-01,-0.200
1.26E-01,0.000
1.26E-01,0.200
1.26E-01,0.400
1.26E-01,0.200
1.26E-01,0.200
1.26E-01,0.000
1.26E-01,-0.200
1.27E-01,0.000
1.27E-01,0.000
1.27E-01,0.200
1.27E-01,0.000
1.27E-01,0.000
1.27E-01,0.000
1.27E-01,0.000
1.27E-01,-0.200
1.27E-01,0.200
1.27E-01,-0.200
1.28E-01,0.000
1.28E-01,0.000
1.28E-01,0.000
1.28E-01,0.200
1.28E-01,0.000
1.28E-01,0.000
1.28E-01,0.000
1.28E-01,0.000
1.28E-01,0.000
1.28E-01,0.000
1.29E-01,-0.200
1.29E-01,0.000
1.29E-01,0.000
1.29E-01,0.000
1.29E-01,-0.200
1.29E-01,0.000
1.29E-01,0.200
1.29E-01,0.200
1.29E-01,-0.200
1.29E-01,0.000
1.30E-01,0.000
1.30E-01,0.000
1.30E-01,-0.200
1.30E-01,0.000
1.30E-01,0.200
1.30E-01,0.200
1.30E-01,-0.200
1.30E-01,0.000
1.30E-01,0.200
1.30E-01,0.000
1.31E-01,0.000
1.31E-01,0.200
1.31E-01,-0.200
1.31E-01,0.000
1.31E-01,0.000
1.31E-01,0.200
1.31E-01,0.000
