checkpoint5/mediociones/RL_6_8_Vin_30.csv

#timebase=8000000000(ps)
,#voltbase=5000000(mv/100)
#size=4000
4.00E-05,0.200
8.00E-05,0.200
1.20E-04,0.000
1.60E-04,0.000
2.00E-04,0.000
2.40E-04,-0.200
2.80E-04,0.000
3.20E-04,0.000
3.60E-04,0.200
4.00E-04,0.000
4.40E-04,0.200
4.80E-04,-0.200
5.20E-04,0.200
5.60E-04,0.200
6.00E-04,-0.200
6.40E-04,0.000
6.80E-04,0.000
7.20E-04,0.000
7.60E-04,0.000
8.00E-04,0.000
8.40E-04,-0.200
8.80E-04,0.000
9.20E-04,-0.200
9.60E-04,0.000
1.00E-03,0.200
1.04E-03,0.000
1.08E-03,0.000
1.12E-03,-0.200
1.16E-03,0.000
1.20E-03,0.000
1.24E-03,0.200
1.28E-03,-0.200
1.32E-03,0.000
1.36E-03,-0.200
1.40E-03,0.000
1.44E-03,0.400
1.48E-03,-0.200
1.52E-03,0.200
1.56E-03,0.000
1.60E-03,0.000
1.64E-03,0.200
1.68E-03,0.000
1.72E-03,0.000
1.76E-03,0.200
1.80E-03,0.000
1.84E-03,0.000
1.88E-03,0.200
1.92E-03,-0.200
1.96E-03,0.000
2.00E-03,-0.200
2.04E-03,0.000
2.08E-03,-0.200
2.12E-03,0.000
2.16E-03,0.000
2.20E-03,0.200
2.24E-03,-0.200
2.28E-03,-0.200
2.32E-03,0.000
2.36E-03,-0.200
2.40E-03,0.000
2.44E-03,0.000
2.48E-03,0.000
2.52E-03,0.000
2.56E-03,0.200
2.60E-03,0.000
2.64E-03,0.200
2.68E-03,0.200
2.72E-03,0.200
2.76E-03,0.000
2.80E-03,0.400
2.84E-03,-0.200
2.88E-03,-0.200
2.92E-03,0.000
2.96E-03,0.200
3.00E-03,0.200
3.04E-03,0.000
3.08E-03,0.000
3.12E-03,0.000
3.16E-03,0.200
3.20E-03,0.200
3.24E-03,0.200
3.28E-03,0.000
3.32E-03,0.200
3.36E-03,0.000
3.40E-03,0.200
3.44E-03,-0.200
3.48E-03,0.000
3.52E-03,0.000
3.56E-03,0.000
3.60E-03,-0.200
3.64E-03,0.200
3.68E-03,-0.200
3.72E-03,0.000
3.76E-03,0.000
3.80E-03,0.000
3.84E-03,-0.200
3.88E-03,0.000
3.92E-03,0.000
3.96E-03,0.000
4.00E-03,0.000
4.04E-03,0.200
4.08E-03,-0.200
4.12E-03,-0.200
4.16E-03,0.000
4.20E-03,-0.200
4.24E-03,0.000
4.28E-03,0.000
4.32E-03,0.200
4.36E-03,0.200
4.40E-03,0.000
4.44E-03,0.200
4.48E-03,0.000
4.52E-03,0.000
4.56E-03,0.200
4.60E-03,0.200
4.64E-03,-0.200
4.68E-03,-0.200
4.72E-03,0.000
4.76E-03,0.200
4.80E-03,-0.200
4.84E-03,0.200
4.88E-03,0.000
4.92E-03,0.000
4.96E-03,-0.200
5.00E-03,0.000
5.04E-03,0.000
5.08E-03,0.000
5.12E-03,0.400
5.16E-03,0.000
5.20E-03,-0.200
5.24E-03,0.000
5.28E-03,-0.200
5.32E-03,0.000
5.36E-03,0.000
5.40E-03,0.000
5.44E-03,0.000
5.48E-03,0.000
5.52E-03,0.200
5.56E-03,0.000
5.60E-03,0.000
5.64E-03,-0.200
5.68E-03,0.200
5.72E-03,-0.200
5.76E-03,0.000
5.80E-03,0.000
5.84E-03,0.000
5.88E-03,0.200
5.92E-03,0.000
5.96E-03,0.200
6.00E-03,0.000
6.04E-03,-0.200
6.08E-03,0.000
6.12E-03,0.000
6.16E-03,0.000
6.20E-03,0.000
6.24E-03,-0.200
6.28E-03,-0.200
6.32E-03,0.200
6.36E-03,-0.200
6.40E-03,0.000
6.44E-03,-0.200
6.48E-03,0.000
6.52E-03,0.200
6.56E-03,-0.200
6.60E-03,0.000
6.64E-03,0.000
6.68E-03,0.000
6.72E-03,0.000
6.76E-03,0.200
6.80E-03,0.200
6.84E-03,0.400
6.88E-03,0.200
6.92E-03,-0.200
6.96E-03,-0.200
7.00E-03,0.000
7.04E-03,0.000
7.08E-03,-0.200
7.12E-03,0.000
7.16E-03,0.200
7.20E-03,0.200
7.24E-03,0.400
7.28E-03,0.200
7.32E-03,-0.200
7.36E-03,0.000
7.40E-03,0.000
7.44E-03,-0.200
7.48E-03,0.000
7.52E-03,0.000
7.56E-03,0.000
7.60E-03,0.000
7.64E-03,0.000
7.68E-03,-0.200
7.72E-03,0.000
7.76E-03,-0.200
7.80E-03,0.000
7.84E-03,0.000
7.88E-03,0.000
7.92E-03,0.000
7.96E-03,0.000
8.00E-03,0.200
8.04E-03,-0.200
8.08E-03,0.200
8.12E-03,-0.200
8.16E-03,-0.200
8.20E-03,0.000
8.24E-03,0.200
8.28E-03,0.000
8.32E-03,0.200
8.36E-03,-0.200
8.40E-03,-0.200
8.44E-03,0.200
8.48E-03,-0.200
8.52E-03,0.000
8.56E-03,0.000
8.60E-03,0.000
8.64E-03,-0.200
8.68E-03,0.000
8.72E-03,-0.200
8.76E-03,0.000
8.80E-03,0.000
8.84E-03,-0.200
8.88E-03,0.000
8.92E-03,0.200
8.96E-03,0.200
9.00E-03,0.000
9.04E-03,0.200
9.08E-03,0.000
9.12E-03,0.200
9.16E-03,0.000
9.20E-03,0.200
9.24E-03,0.200
9.28E-03,-0.200
9.32E-03,-0.200
9.36E-03,0.000
9.40E-03,0.000
9.44E-03,0.000
9.48E-03,0.200
9.52E-03,0.000
9.56E-03,0.000
9.60E-03,0.000
9.64E-03,-0.200
9.68E-03,-0.200
9.72E-03,0.000
9.76E-03,0.200
9.80E-03,0.200
9.84E-03,0.000
9.88E-03,0.000
9.92E-03,0.000
9.96E-03,0.000
1.00E-02,0.000
1.00E-02,0.000
1.01E-02,0.200
1.01E-02,0.000
1.02E-02,-0.200
1.02E-02,0.000
1.02E-02,0.000
1.03E-02,0.000
1.03E-02,0.000
1.04E-02,0.000
1.04E-02,0.200
1.04E-02,0.400
1.05E-02,-0.200
1.05E-02,0.000
1.06E-02,0.000
1.06E-02,0.200
1.06E-02,0.200
1.07E-02,0.400
1.07E-02,-0.200
1.08E-02,-0.200
1.08E-02,0.200
1.08E-02,0.000
1.09E-02,0.000
1.09E-02,0.000
1.10E-02,0.000
1.10E-02,0.000
1.10E-02,-0.200
1.11E-02,-0.200
1.11E-02,0.200
1.12E-02,-0.200
1.12E-02,0.000
1.12E-02,0.000
1.13E-02,0.000
1.13E-02,0.000
1.14E-02,0.000
1.14E-02,-0.200
1.14E-02,0.000
1.15E-02,-0.200
1.15E-02,0.200
1.16E-02,0.200
1.16E-02,0.000
1.16E-02,0.000
1.17E-02,0.000
1.17E-02,0.200
1.18E-02,-0.200
1.18E-02,0.000
1.18E-02,0.200
1.19E-02,0.200
1.19E-02,0.000
1.20E-02,0.000
1.20E-02,0.200
1.20E-02,0.000
1.21E-02,-0.200
1.21E-02,0.000
1.22E-02,0.000
1.22E-02,0.000
1.22E-02,0.200
1.23E-02,0.000
1.23E-02,0.000
1.24E-02,0.000
1.24E-02,0.200
1.24E-02,0.000
1.25E-02,0.200
1.25E-02,0.000
1.26E-02,0.000
1.26E-02,0.400
1.26E-02,-0.200
1.27E-02,0.000
1.27E-02,0.200
1.28E-02,0.200
1.28E-02,-0.200
1.28E-02,0.200
1.29E-02,0.400
1.29E-02,0.000
1.30E-02,0.000
1.30E-02,0.000
1.30E-02,0.200
1.31E-02,0.000
1.31E-02,0.000
1.32E-02,0.000
1.32E-02,0.200
1.32E-02,0.200
1.33E-02,-0.200
1.33E-02,0.000
1.34E-02,0.000
1.34E-02,0.200
1.34E-02,0.000
1.35E-02,0.200
1.35E-02,0.000
1.36E-02,0.000
1.36E-02,0.000
1.36E-02,0.000
1.37E-02,0.000
1.37E-02,0.000
1.38E-02,0.000
1.38E-02,0.200
1.38E-02,0.000
1.39E-02,-0.200
1.39E-02,-0.200
1.40E-02,0.200
1.40E-02,-0.200
1.40E-02,-0.200
1.41E-02,0.200
1.41E-02,-0.200
1.42E-02,0.000
1.42E-02,0.000
1.42E-02,0.200
1.43E-02,0.200
1.43E-02,0.200
1.44E-02,0.200
1.44E-02,0.000
1.44E-02,0.000
1.45E-02,0.000
1.45E-02,0.000
1.46E-02,0.200
1.46E-02,0.000
1.46E-02,0.000
1.47E-02,-0.200
1.47E-02,0.200
1.48E-02,0.000
1.48E-02,0.000
1.48E-02,0.200
1.49E-02,0.400
1.49E-02,0.200
1.50E-02,-0.200
1.50E-02,0.000
1.50E-02,0.000
1.51E-02,-0.200
1.51E-02,0.000
1.52E-02,0.000
1.52E-02,0.000
1.52E-02,-0.200
1.53E-02,0.200
1.53E-02,0.000
1.54E-02,0.200
1.54E-02,0.200
1.54E-02,0.000
1.55E-02,0.000
1.55E-02,0.200
1.56E-02,-0.200
1.56E-02,0.000
1.56E-02,-0.200
1.57E-02,0.000
1.57E-02,0.200
1.58E-02,0.200
1.58E-02,0.200
1.58E-02,0.200
1.59E-02,0.000
1.59E-02,-0.200
1.60E-02,0.000
1.60E-02,0.200
1.60E-02,-0.200
1.61E-02,0.200
1.61E-02,0.000
1.62E-02,0.000
1.62E-02,0.000
1.62E-02,0.000
1.63E-02,0.000
1.63E-02,-0.200
1.64E-02,0.000
1.64E-02,0.000
1.64E-02,0.000
1.65E-02,0.200
1.65E-02,-0.200
1.66E-02,-0.200
1.66E-02,0.000
1.66E-02,-0.200
1.67E-02,0.200
1.67E-02,0.000
1.68E-02,0.000
1.68E-02,0.000
1.68E-02,-0.200
1.69E-02,-0.200
1.69E-02,0.000
1.70E-02,0.000
1.70E-02,0.000
1.70E-02,0.200
1.71E-02,-0.200
1.71E-02,-0.200
1.72E-02,0.000
1.72E-02,-0.200
1.72E-02,0.200
1.73E-02,0.200
1.73E-02,0.000
1.74E-02,0.200
1.74E-02,0.200
1.74E-02,0.200
1.75E-02,-0.200
1.75E-02,-0.200
1.76E-02,0.000
1.76E-02,0.200
1.76E-02,-0.200
1.77E-02,-0.200
1.77E-02,0.000
1.78E-02,0.000
1.78E-02,0.000
1.78E-02,0.000
1.79E-02,0.200
1.79E-02,0.400
1.80E-02,-0.200
1.80E-02,-0.200
1.80E-02,0.200
1.81E-02,0.200
1.81E-02,0.400
1.82E-02,-0.200
1.82E-02,0.000
1.82E-02,0.000
1.83E-02,0.000
1.83E-02,0.200
1.84E-02,0.200
1.84E-02,-0.200
1.84E-02,0.000
1.85E-02,0.000
1.85E-02,0.000
1.86E-02,-0.200
1.86E-02,0.000
1.86E-02,0.000
1.87E-02,0.200
1.87E-02,-0.200
1.88E-02,-0.200
1.88E-02,0.000
1.88E-02,-0.200
1.89E-02,-0.200
1.89E-02,0.200
1.90E-02,-0.200
1.90E-02,0.000
1.90E-02,0.000
1.91E-02,0.200
1.91E-02,0.000
1.92E-02,0.000
1.92E-02,0.200
1.92E-02,0.000
1.93E-02,0.200
1.93E-02,0.200
1.94E-02,0.000
1.94E-02,0.000
1.94E-02,0.200
1.95E-02,0.200
1.95E-02,0.400
1.96E-02,0.200
1.96E-02,-0.200
1.96E-02,-0.200
1.97E-02,0.000
1.97E-02,-0.200
1.98E-02,0.000
1.98E-02,-0.200
1.98E-02,-0.200
1.99E-02,0.000
1.99E-02,0.400
2.00E-02,0.000
2.00E-02,-0.200
2.00E-02,0.200
2.01E-02,0.000
2.01E-02,0.000
2.02E-02,0.000
2.02E-02,0.000
2.02E-02,0.200
2.03E-02,-0.200
2.03E-02,0.000
2.04E-02,0.000
2.04E-02,0.000
2.04E-02,0.400
2.05E-02,0.000
2.05E-02,0.000
2.06E-02,0.000
2.06E-02,0.000
2.06E-02,0.200
2.07E-02,0.200
2.07E-02,0.000
2.08E-02,0.000
2.08E-02,0.200
2.08E-02,0.000
2.09E-02,-0.200
2.09E-02,0.000
2.10E-02,0.200
2.10E-02,0.000
2.10E-02,0.200
2.11E-02,0.000
2.11E-02,0.000
2.12E-02,0.200
2.12E-02,0.000
2.12E-02,0.200
2.13E-02,0.200
2.13E-02,0.000
2.14E-02,0.000
2.14E-02,0.000
2.14E-02,-0.200
2.15E-02,0.000
2.15E-02,0.000
2.16E-02,0.000
2.16E-02,0.200
2.16E-02,0.000
2.17E-02,0.200
2.17E-02,0.200
2.18E-02,0.200
2.18E-02,0.000
2.18E-02,-0.200
2.19E-02,0.200
2.19E-02,0.000
2.20E-02,0.000
2.20E-02,0.000
2.20E-02,-0.200
2.21E-02,0.000
2.21E-02,0.200
2.22E-02,-0.200
2.22E-02,0.200
2.22E-02,0.000
2.23E-02,0.000
2.23E-02,0.000
2.24E-02,0.000
2.24E-02,0.200
2.24E-02,-0.200
2.25E-02,0.000
2.25E-02,0.200
2.26E-02,-0.200
2.26E-02,-0.200
2.26E-02,0.000
2.27E-02,0.200
2.27E-02,0.000
2.28E-02,0.200
2.28E-02,0.200
2.28E-02,-0.200
2.29E-02,0.000
2.29E-02,0.000
2.30E-02,0.200
2.30E-02,0.000
2.30E-02,0.000
2.31E-02,-0.200
2.31E-02,0.000
2.32E-02,0.000
2.32E-02,0.000
2.32E-02,0.200
2.33E-02,-0.200
2.33E-02,0.000
2.34E-02,0.000
2.34E-02,0.000
2.34E-02,0.000
2.35E-02,-0.200
2.35E-02,0.200
2.36E-02,-0.200
2.36E-02,0.000
2.36E-02,0.000
2.37E-02,0.000
2.37E-02,0.200
2.38E-02,0.200
2.38E-02,0.000
2.38E-02,0.200
2.39E-02,0.000
2.39E-02,0.000
2.40E-02,0.200
2.40E-02,0.000
2.40E-02,0.000
2.41E-02,0.200
2.41E-02,0.000
2.42E-02,-0.200
2.42E-02,0.000
2.42E-02,0.200
2.43E-02,-0.200
2.43E-02,0.000
2.44E-02,0.000
2.44E-02,0.200
2.44E-02,0.000
2.45E-02,-0.200
2.45E-02,0.000
2.46E-02,-0.200
2.46E-02,-0.200
2.46E-02,0.000
2.47E-02,0.200
2.47E-02,0.200
2.48E-02,-0.200
2.48E-02,0.000
2.48E-02,0.000
2.49E-02,0.000
2.49E-02,0.000
2.50E-02,0.000
2.50E-02,0.000
2.50E-02,0.000
2.51E-02,0.000
2.51E-02,0.000
2.52E-02,0.000
2.52E-02,0.000
2.52E-02,0.200
2.53E-02,0.200
2.53E-02,0.000
2.54E-02,0.200
2.54E-02,0.000
2.54E-02,-0.200
2.55E-02,0.000
2.55E-02,0.000
2.56E-02,0.200
2.56E-02,0.200
2.56E-02,0.000
2.57E-02,0.200
2.57E-02,0.000
2.58E-02,0.200
2.58E-02,0.000
2.58E-02,0.000
2.59E-02,0.000
2.59E-02,0.000
2.60E-02,0.000
2.60E-02,0.000
2.60E-02,0.200
2.61E-02,-0.200
2.61E-02,0.200
2.62E-02,0.000
2.62E-02,0.200
2.62E-02,0.000
2.63E-02,0.000
2.63E-02,0.000
2.64E-02,-0.200
2.64E-02,0.200
2.64E-02,0.000
2.65E-02,0.000
2.65E-02,0.000
2.66E-02,0.000
2.66E-02,0.000
2.66E-02,0.200
2.67E-02,0.000
2.67E-02,0.200
2.68E-02,-0.200
2.68E-02,0.000
2.68E-02,0.000
2.69E-02,0.000
2.69E-02,-0.200
2.70E-02,0.200
2.70E-02,0.200
2.70E-02,0.200
2.71E-02,-0.200
2.71E-02,0.200
2.72E-02,0.200
2.72E-02,0.200
2.72E-02,0.000
2.73E-02,0.000
2.73E-02,0.200
2.74E-02,0.200
2.74E-02,0.000
2.74E-02,0.000
2.75E-02,0.000
2.75E-02,0.000
2.76E-02,0.000
2.76E-02,0.000
2.76E-02,-0.200
2.77E-02,0.000
2.77E-02,0.200
2.78E-02,0.200
2.78E-02,-0.200
2.78E-02,0.000
2.79E-02,0.000
2.79E-02,0.000
2.80E-02,0.000
2.80E-02,0.000
2.80E-02,0.000
2.81E-02,0.200
2.81E-02,0.000
2.82E-02,0.000
2.82E-02,0.000
2.82E-02,0.000
2.83E-02,0.000
2.83E-02,0.000
2.84E-02,-0.200
2.84E-02,0.000
2.84E-02,0.200
2.85E-02,0.000
2.85E-02,0.000
2.86E-02,0.000
2.86E-02,-0.200
2.86E-02,0.000
2.87E-02,0.000
2.87E-02,0.200
2.88E-02,0.000
2.88E-02,0.000
2.88E-02,0.200
2.89E-02,0.000
2.89E-02,0.200
2.90E-02,0.200
2.90E-02,-0.200
2.90E-02,-0.200
2.91E-02,0.000
2.91E-02,-0.200
2.92E-02,-0.200
2.92E-02,0.000
2.92E-02,0.000
2.93E-02,0.000
2.93E-02,0.000
2.94E-02,0.200
2.94E-02,0.200
2.94E-02,-0.200
2.95E-02,0.000
2.95E-02,0.200
2.96E-02,0.000
2.96E-02,0.000
2.96E-02,0.000
2.97E-02,0.200
2.97E-02,0.000
2.98E-02,0.000
2.98E-02,0.000
2.98E-02,0.200
2.99E-02,0.000
2.99E-02,0.000
3.00E-02,0.000
3.00E-02,0.200
3.00E-02,-0.200
3.01E-02,0.200
3.01E-02,0.000
3.02E-02,0.200
3.02E-02,0.000
3.02E-02,0.000
3.03E-02,0.000
3.03E-02,0.000
3.04E-02,0.000
3.04E-02,0.000
3.04E-02,0.000
3.05E-02,0.000
3.05E-02,0.000
3.06E-02,-0.200
3.06E-02,0.000
3.06E-02,0.200
3.07E-02,0.000
3.07E-02,0.000
3.08E-02,0.000
3.08E-02,0.200
3.08E-02,-0.200
3.09E-02,0.200
3.09E-02,0.000
3.10E-02,0.200
3.10E-02,-0.200
3.10E-02,0.000
3.11E-02,-0.200
3.11E-02,0.000
3.12E-02,-0.200
3.12E-02,-0.200
3.12E-02,0.200
3.13E-02,0.200
3.13E-02,0.200
3.14E-02,-0.200
3.14E-02,0.200
3.14E-02,0.000
3.15E-02,0.000
3.15E-02,0.000
3.16E-02,0.000
3.16E-02,0.000
3.16E-02,0.000
3.17E-02,0.000
3.17E-02,0.200
3.18E-02,0.000
3.18E-02,0.000
3.18E-02,0.200
3.19E-02,0.000
3.19E-02,0.000
3.20E-02,0.000
3.20E-02,0.400
3.20E-02,0.200
3.21E-02,0.200
3.21E-02,-0.200
3.22E-02,0.000
3.22E-02,0.000
3.22E-02,0.000
3.23E-02,0.200
3.23E-02,0.000
3.24E-02,0.000
3.24E-02,0.000
3.24E-02,0.000
3.25E-02,0.000
3.25E-02,0.000
3.26E-02,0.000
3.26E-02,0.200
3.26E-02,0.400
3.27E-02,0.400
3.27E-02,-0.200
3.28E-02,-0.200
3.28E-02,0.200
3.28E-02,0.400
3.29E-02,0.200
3.29E-02,0.400
3.30E-02,0.200
3.30E-02,-0.200
3.30E-02,0.000
3.31E-02,0.000
3.31E-02,0.000
3.32E-02,0.200
3.32E-02,-0.200
3.32E-02,-0.200
3.33E-02,0.000
3.33E-02,0.000
3.34E-02,-0.200
3.34E-02,0.000
3.34E-02,-0.200
3.35E-02,0.000
3.35E-02,0.400
3.36E-02,-0.200
3.36E-02,-0.200
3.36E-02,0.000
3.37E-02,-0.200
3.37E-02,0.200
3.38E-02,0.000
3.38E-02,0.000
3.38E-02,0.000
3.39E-02,0.000
3.39E-02,0.400
3.40E-02,-0.200
3.40E-02,0.000
3.40E-02,0.000
3.41E-02,-0.200
3.41E-02,0.000
3.42E-02,0.000
3.42E-02,0.200
3.42E-02,0.200
3.43E-02,-0.200
3.43E-02,0.000
3.44E-02,0.000
3.44E-02,0.000
3.44E-02,-0.200
3.45E-02,0.000
3.45E-02,0.000
3.46E-02,0.000
3.46E-02,0.000
3.46E-02,0.000
3.47E-02,0.000
3.47E-02,0.200
3.48E-02,0.000
3.48E-02,0.000
3.48E-02,0.200
3.49E-02,0.200
3.49E-02,-0.200
3.50E-02,-0.200
3.50E-02,0.000
3.50E-02,0.400
3.51E-02,-0.200
3.51E-02,0.000
3.52E-02,0.200
3.52E-02,-0.200
3.52E-02,-0.200
3.53E-02,0.000
3.53E-02,0.400
3.54E-02,-0.200
3.54E-02,0.200
3.54E-02,0.200
3.55E-02,0.200
3.55E-02,0.200
3.56E-02,0.200
3.56E-02,0.400
3.56E-02,0.000
3.57E-02,0.000
3.57E-02,0.000
3.58E-02,0.200
3.58E-02,0.200
3.58E-02,-0.200
3.59E-02,-0.200
3.59E-02,0.000
3.60E-02,-0.200
3.60E-02,0.000
3.60E-02,0.400
3.61E-02,0.200
3.61E-02,0.200
3.62E-02,0.000
3.62E-02,0.200
3.62E-02,0.000
3.63E-02,0.200
3.63E-02,0.000
3.64E-02,0.200
3.64E-02,0.200
3.64E-02,0.400
3.65E-02,-0.200
3.65E-02,0.000
3.66E-02,0.000
3.66E-02,0.000
3.66E-02,0.200
3.67E-02,-0.200
3.67E-02,0.000
3.68E-02,0.000
3.68E-02,0.000
3.68E-02,0.000
3.69E-02,0.000
3.69E-02,0.200
3.70E-02,0.200
3.70E-02,0.200
3.70E-02,0.000
3.71E-02,-0.200
3.71E-02,0.000
3.72E-02,0.200
3.72E-02,0.200
3.72E-02,0.000
3.73E-02,0.000
3.73E-02,-0.200
3.74E-02,0.000
3.74E-02,0.000
3.74E-02,0.000
3.75E-02,0.400
3.75E-02,-0.200
3.76E-02,0.000
3.76E-02,0.000
3.76E-02,0.000
3.77E-02,0.200
3.77E-02,0.200
3.78E-02,-0.200
3.78E-02,-0.200
3.78E-02,0.000
3.79E-02,-0.200
3.79E-02,0.000
3.80E-02,-0.200
3.80E-02,0.000
3.80E-02,0.200
3.81E-02,0.000
3.81E-02,0.000
3.82E-02,-0.200
3.82E-02,0.000
3.82E-02,0.400
3.83E-02,0.200
3.83E-02,0.200
3.84E-02,-0.200
3.84E-02,0.000
3.84E-02,0.000
3.85E-02,0.000
3.85E-02,0.000
3.86E-02,-0.200
3.86E-02,-0.200
3.86E-02,0.000
3.87E-02,0.000
3.87E-02,0.200
3.88E-02,0.000
3.88E-02,0.200
3.88E-02,0.200
3.89E-02,0.000
3.89E-02,0.000
3.90E-02,0.200
3.90E-02,0.000
3.90E-02,0.000
3.91E-02,0.200
3.91E-02,-0.200
3.92E-02,0.000
3.92E-02,0.000
3.92E-02,0.200
3.93E-02,0.000
3.93E-02,0.200
3.94E-02,0.000
3.94E-02,0.000
3.94E-02,0.000
3.95E-02,0.000
3.95E-02,0.200
3.96E-02,0.000
3.96E-02,0.000
3.96E-02,0.000
3.97E-02,0.200
3.97E-02,-0.200
3.98E-02,-0.200
3.98E-02,0.000
3.98E-02,0.000
3.99E-02,0.000
3.99E-02,0.000
4.00E-02,0.000
4.00E-02,0.000
4.00E-02,0.200
4.01E-02,0.000
4.01E-02,0.000
4.02E-02,0.200
4.02E-02,0.200
4.02E-02,0.400
4.03E-02,0.200
4.03E-02,-0.200
4.04E-02,-0.200
4.04E-02,0.000
4.04E-02,0.000
4.05E-02,0.000
4.05E-02,0.000
4.06E-02,0.200
4.06E-02,0.000
4.06E-02,-0.200
4.07E-02,0.000
4.07E-02,0.000
4.08E-02,-0.200
4.08E-02,0.000
4.08E-02,0.000
4.09E-02,0.200
4.09E-02,0.000
4.10E-02,0.200
4.10E-02,0.200
4.10E-02,-0.200
4.11E-02,-0.200
4.11E-02,0.000
4.12E-02,-0.200
4.12E-02,0.000
4.12E-02,0.000
4.13E-02,0.200
4.13E-02,0.000
4.14E-02,0.000
4.14E-02,0.000
4.14E-02,0.200
4.15E-02,0.000
4.15E-02,0.000
4.16E-02,0.000
4.16E-02,-0.200
4.16E-02,-0.200
4.17E-02,0.000
4.17E-02,-0.200
4.18E-02,0.200
4.18E-02,0.000
4.18E-02,0.200
4.19E-02,0.000
4.19E-02,0.200
4.20E-02,0.000
4.20E-02,-0.200
4.20E-02,-0.200
4.21E-02,0.000
4.21E-02,0.200
4.22E-02,0.200
4.22E-02,-0.200
4.22E-02,-0.200
4.23E-02,0.000
4.23E-02,0.000
4.24E-02,0.000
4.24E-02,0.200
4.24E-02,0.000
4.25E-02,0.400
4.25E-02,-0.200
4.26E-02,-0.200
4.26E-02,0.000
4.26E-02,0.000
4.27E-02,0.000
4.27E-02,0.000
4.28E-02,0.000
4.28E-02,0.200
4.28E-02,0.000
4.29E-02,0.000
4.29E-02,0.000
4.30E-02,0.000
4.30E-02,0.000
4.30E-02,0.000
4.31E-02,0.200
4.31E-02,0.000
4.32E-02,0.000
4.32E-02,0.000
4.32E-02,0.200
4.33E-02,-0.200
4.33E-02,0.000
4.34E-02,0.000
4.34E-02,0.000
4.34E-02,0.200
4.35E-02,0.200
4.35E-02,0.200
4.36E-02,0.200
4.36E-02,0.000
4.36E-02,0.000
4.37E-02,0.000
4.37E-02,0.000
4.38E-02,0.000
4.38E-02,0.000
4.38E-02,0.000
4.39E-02,0.200
4.39E-02,0.000
4.40E-02,0.200
4.40E-02,0.200
4.40E-02,-0.200
4.41E-02,0.000
4.41E-02,-0.200
4.42E-02,-0.200
4.42E-02,0.200
4.42E-02,0.000
4.43E-02,0.000
4.43E-02,0.000
4.44E-02,0.000
4.44E-02,0.400
4.44E-02,-0.200
4.45E-02,-0.200
4.45E-02,0.000
4.46E-02,0.000
4.46E-02,0.000
4.46E-02,-0.200
4.47E-02,0.000
4.47E-02,0.000
4.48E-02,0.200
4.48E-02,0.000
4.48E-02,0.200
4.49E-02,0.200
4.49E-02,0.200
4.50E-02,0.200
4.50E-02,-0.200
4.50E-02,0.000
4.51E-02,0.200
4.51E-02,0.000
4.52E-02,0.200
4.52E-02,0.000
4.52E-02,-0.200
4.53E-02,0.200
4.53E-02,0.000
4.54E-02,0.000
4.54E-02,0.400
4.54E-02,0.000
4.55E-02,0.000
4.55E-02,0.200
4.56E-02,-0.200
4.56E-02,-0.200
4.56E-02,0.200
4.57E-02,0.000
4.57E-02,0.000
4.58E-02,0.000
4.58E-02,0.200
4.58E-02,0.000
4.59E-02,0.000
4.59E-02,0.000
4.60E-02,0.000
4.60E-02,-0.200
4.60E-02,0.000
4.61E-02,0.000
4.61E-02,0.200
4.62E-02,-0.200
4.62E-02,-0.200
4.62E-02,0.000
4.63E-02,0.000
4.63E-02,0.000
4.64E-02,0.000
4.64E-02,0.000
4.64E-02,0.200
4.65E-02,0.000
4.65E-02,0.000
4.66E-02,0.200
4.66E-02,0.000
4.66E-02,0.000
4.67E-02,0.000
4.67E-02,0.200
4.68E-02,0.200
4.68E-02,0.200
4.68E-02,0.200
4.69E-02,0.000
4.69E-02,0.000
4.70E-02,0.000
4.70E-02,0.000
4.70E-02,0.000
4.71E-02,0.000
4.71E-02,0.200
4.72E-02,0.000
4.72E-02,0.000
4.72E-02,0.000
4.73E-02,-0.200
4.73E-02,-0.200
4.74E-02,0.200
4.74E-02,-0.200
4.74E-02,-0.200
4.75E-02,0.000
4.75E-02,0.000
4.76E-02,0.200
4.76E-02,0.000
4.76E-02,0.200
4.77E-02,-0.200
4.77E-02,-0.200
4.78E-02,0.000
4.78E-02,-0.200
4.78E-02,0.000
4.79E-02,0.000
4.79E-02,0.000
4.80E-02,0.000
4.80E-02,0.000
4.80E-02,0.200
4.81E-02,0.200
4.81E-02,-0.200
4.82E-02,-0.200
4.82E-02,0.000
4.82E-02,-0.200
4.83E-02,-0.200
4.83E-02,0.000
4.84E-02,0.000
4.84E-02,-0.200
4.84E-02,0.000
4.85E-02,0.200
4.85E-02,0.000
4.86E-02,0.000
4.86E-02,0.200
4.86E-02,0.400
4.87E-02,-0.200
4.87E-02,0.000
4.88E-02,0.000
4.88E-02,0.000
4.88E-02,0.000
4.89E-02,0.000
4.89E-02,0.200
4.90E-02,0.200
4.90E-02,0.000
4.90E-02,0.000
4.91E-02,0.000
4.91E-02,0.000
4.92E-02,0.000
4.92E-02,0.000
4.92E-02,0.000
4.93E-02,0.000
4.93E-02,0.400
4.94E-02,0.000
4.94E-02,-0.200
4.94E-02,0.000
4.95E-02,0.000
4.95E-02,0.000
4.96E-02,0.000
4.96E-02,0.000
4.96E-02,-0.200
4.97E-02,0.000
4.97E-02,0.200
4.98E-02,-0.200
4.98E-02,0.000
4.98E-02,0.000
4.99E-02,0.000
4.99E-02,0.000
5.00E-02,0.000
5.00E-02,0.000
5.00E-02,0.200
5.01E-02,-0.200
5.01E-02,0.000
5.02E-02,0.000
5.02E-02,0.000
5.02E-02,0.000
5.03E-02,-0.200
5.03E-02,0.200
5.04E-02,-0.200
5.04E-02,-0.200
5.04E-02,0.200
5.05E-02,-0.200
5.05E-02,0.000
5.06E-02,0.000
5.06E-02,-0.200
5.06E-02,0.000
5.07E-02,0.000
5.07E-02,0.000
5.08E-02,0.000
5.08E-02,0.000
5.08E-02,0.000
5.09E-02,0.000
5.09E-02,0.200
5.10E-02,0.000
5.10E-02,0.000
5.10E-02,0.200
5.11E-02,-0.200
5.11E-02,0.000
5.12E-02,0.000
5.12E-02,0.000
5.12E-02,0.200
5.13E-02,-0.200
5.13E-02,0.200
5.14E-02,0.000
5.14E-02,0.000
5.14E-02,0.000
5.15E-02,0.200
5.15E-02,0.000
5.16E-02,-0.200
5.16E-02,-0.200
5.16E-02,0.000
5.17E-02,0.000
5.17E-02,0.200
5.18E-02,0.200
5.18E-02,0.000
5.18E-02,0.000
5.19E-02,0.000
5.19E-02,0.000
5.20E-02,0.000
5.20E-02,0.000
5.20E-02,-0.200
5.21E-02,0.000
5.21E-02,-0.200
5.22E-02,-0.200
5.22E-02,0.000
5.22E-02,0.000
5.23E-02,0.000
5.23E-02,0.200
5.24E-02,0.000
5.24E-02,0.000
5.24E-02,0.000
5.25E-02,0.200
