checkpoint4/graficos/cuadrada_vref19.csv

#timebase=4000000(ps)
,#voltbase=5000000(mv/100)
#size=4000
2.00E-08,0.600
4.00E-08,0.800
6.00E-08,0.800
8.00E-08,0.800
1.00E-07,1.000
1.20E-07,0.800
1.40E-07,0.800
1.60E-07,1.000
1.80E-07,0.800
2.00E-07,2.400
2.20E-07,4.200
2.40E-07,6.000
2.60E-07,6.600
2.80E-07,7.600
3.00E-07,8.200
3.20E-07,9.000
3.40E-07,9.400
3.60E-07,9.800
3.80E-07,10.200
4.00E-07,10.200
4.20E-07,10.600
4.40E-07,10.400
4.60E-07,10.800
4.80E-07,10.800
5.00E-07,10.800
5.20E-07,11.200
5.40E-07,11.000
5.60E-07,11.200
5.80E-07,11.400
6.00E-07,11.400
6.20E-07,11.400
6.40E-07,11.400
6.60E-07,11.400
6.80E-07,11.400
7.00E-07,11.400
7.20E-07,11.400
7.40E-07,11.400
7.60E-07,11.600
7.80E-07,11.200
8.00E-07,11.200
8.20E-07,11.600
8.40E-07,11.400
8.60E-07,11.600
8.80E-07,11.400
9.00E-07,11.200
9.20E-07,11.400
9.40E-07,11.600
9.60E-07,11.400
9.80E-07,11.400
1.00E-06,11.400
1.02E-06,11.400
1.04E-06,11.200
1.06E-06,11.400
1.08E-06,11.400
1.10E-06,11.400
1.12E-06,11.400
1.14E-06,11.400
1.16E-06,11.400
1.18E-06,11.400
1.20E-06,11.400
1.22E-06,11.600
1.24E-06,11.400
1.26E-06,11.400
1.28E-06,11.400
1.30E-06,11.400
1.32E-06,11.400
1.34E-06,11.400
1.36E-06,11.600
1.38E-06,11.400
1.40E-06,11.400
1.42E-06,11.400
1.44E-06,11.600
1.46E-06,11.400
1.48E-06,11.400
1.50E-06,11.400
1.52E-06,11.400
1.54E-06,11.600
1.56E-06,11.400
1.58E-06,11.400
1.60E-06,11.400
1.62E-06,11.400
1.64E-06,11.600
1.66E-06,11.600
1.68E-06,11.600
1.70E-06,11.400
1.72E-06,11.400
1.74E-06,11.400
1.76E-06,11.400
1.78E-06,11.400
1.80E-06,11.400
1.82E-06,11.400
1.84E-06,11.400
1.86E-06,11.400
1.88E-06,11.400
1.90E-06,11.600
1.92E-06,11.600
1.94E-06,11.400
1.96E-06,11.400
1.98E-06,11.400
2.00E-06,11.400
2.02E-06,11.400
2.04E-06,11.400
2.06E-06,11.400
2.08E-06,11.400
2.10E-06,11.400
2.12E-06,11.400
2.14E-06,11.200
2.16E-06,11.200
2.18E-06,11.400
2.20E-06,11.400
2.22E-06,11.600
2.24E-06,11.600
2.26E-06,11.400
2.28E-06,11.400
2.30E-06,11.400
2.32E-06,11.400
2.34E-06,11.400
2.36E-06,11.400
2.38E-06,11.000
2.40E-06,11.200
2.42E-06,11.400
2.44E-06,11.400
2.46E-06,11.400
2.48E-06,11.400
2.50E-06,11.400
2.52E-06,11.200
2.54E-06,11.400
2.56E-06,11.400
2.58E-06,11.400
2.60E-06,11.400
2.62E-06,11.400
2.64E-06,11.200
2.66E-06,11.200
2.68E-06,11.200
2.70E-06,11.400
2.72E-06,11.400
2.74E-06,11.400
2.76E-06,11.400
2.78E-06,11.400
2.80E-06,11.400
2.82E-06,11.400
2.84E-06,11.400
2.86E-06,11.400
2.88E-06,11.200
2.90E-06,11.200
2.92E-06,11.400
2.94E-06,11.600
2.96E-06,11.600
2.98E-06,11.600
3.00E-06,11.000
3.02E-06,11.400
3.04E-06,11.200
3.06E-06,11.200
3.08E-06,11.200
3.10E-06,11.400
3.12E-06,11.400
3.14E-06,11.400
3.16E-06,11.400
3.18E-06,11.200
3.20E-06,11.600
3.22E-06,11.600
3.24E-06,11.600
3.26E-06,11.400
3.28E-06,11.400
3.30E-06,11.400
3.32E-06,11.600
3.34E-06,11.400
3.36E-06,11.400
3.38E-06,11.400
3.40E-06,11.400
3.42E-06,11.400
3.44E-06,11.600
3.46E-06,11.600
3.48E-06,11.600
3.50E-06,11.400
3.52E-06,11.400
3.54E-06,11.400
3.56E-06,11.600
3.58E-06,11.600
3.60E-06,11.400
3.62E-06,11.400
3.64E-06,11.400
3.66E-06,11.400
3.68E-06,11.400
3.70E-06,11.400
3.72E-06,11.400
3.74E-06,11.400
3.76E-06,11.400
3.78E-06,11.400
3.80E-06,11.400
3.82E-06,11.400
3.84E-06,11.200
3.86E-06,11.400
3.88E-06,11.400
3.90E-06,11.400
3.92E-06,11.400
3.94E-06,11.400
3.96E-06,11.200
3.98E-06,11.400
4.00E-06,11.400
4.02E-06,11.400
4.04E-06,11.400
4.06E-06,11.400
4.08E-06,11.400
4.10E-06,11.400
4.12E-06,11.400
4.14E-06,11.400
4.16E-06,11.400
4.18E-06,11.400
4.20E-06,11.400
4.22E-06,11.400
4.24E-06,11.000
4.26E-06,10.400
4.28E-06,9.600
4.30E-06,8.600
4.32E-06,7.600
4.34E-06,6.600
4.36E-06,5.600
4.38E-06,4.800
4.40E-06,4.000
4.42E-06,3.200
4.44E-06,2.800
4.46E-06,2.200
4.48E-06,2.000
4.50E-06,1.400
4.52E-06,1.000
4.54E-06,1.200
4.56E-06,1.200
4.58E-06,1.000
4.60E-06,1.000
4.62E-06,1.200
4.64E-06,1.000
4.66E-06,1.000
4.68E-06,1.000
4.70E-06,0.800
4.72E-06,1.000
4.74E-06,0.800
4.76E-06,1.000
4.78E-06,0.800
4.80E-06,0.600
4.82E-06,0.600
4.84E-06,0.800
4.86E-06,0.800
4.88E-06,1.000
4.90E-06,1.000
4.92E-06,0.600
4.94E-06,0.800
4.96E-06,0.800
4.98E-06,1.000
5.00E-06,0.800
5.02E-06,1.000
5.04E-06,0.600
5.06E-06,0.600
5.08E-06,0.800
5.10E-06,0.600
5.12E-06,0.800
5.14E-06,0.600
5.16E-06,1.000
5.18E-06,1.000
5.20E-06,0.800
5.22E-06,0.800
5.24E-06,0.800
5.26E-06,0.800
5.28E-06,1.000
5.30E-06,0.800
5.32E-06,0.600
5.34E-06,0.800
5.36E-06,1.000
5.38E-06,1.000
5.40E-06,0.600
5.42E-06,0.600
5.44E-06,0.800
5.46E-06,0.600
5.48E-06,0.800
5.50E-06,0.800
5.52E-06,0.800
5.54E-06,0.800
5.56E-06,0.800
5.58E-06,0.800
5.60E-06,0.800
5.62E-06,0.800
5.64E-06,0.800
5.66E-06,0.800
5.68E-06,1.000
5.70E-06,0.800
5.72E-06,0.600
5.74E-06,0.800
5.76E-06,0.800
5.78E-06,1.000
5.80E-06,0.800
5.82E-06,0.800
5.84E-06,0.800
5.86E-06,0.800
5.88E-06,0.800
5.90E-06,1.000
5.92E-06,0.800
5.94E-06,0.800
5.96E-06,1.000
5.98E-06,0.800
6.00E-06,1.000
6.02E-06,0.600
6.04E-06,0.800
6.06E-06,1.000
6.08E-06,0.800
6.10E-06,0.600
6.12E-06,0.800
6.14E-06,0.600
6.16E-06,0.600
6.18E-06,0.800
6.20E-06,0.600
6.22E-06,0.800
6.24E-06,0.600
6.26E-06,0.800
6.28E-06,1.000
6.30E-06,0.800
6.32E-06,1.000
6.34E-06,0.600
6.36E-06,0.600
6.38E-06,0.800
6.40E-06,0.600
6.42E-06,0.800
6.44E-06,1.000
6.46E-06,1.000
6.48E-06,1.000
6.50E-06,0.600
6.52E-06,0.800
6.54E-06,1.000
6.56E-06,0.800
6.58E-06,0.600
6.60E-06,0.800
6.62E-06,0.600
6.64E-06,0.800
6.66E-06,0.600
6.68E-06,0.800
6.70E-06,1.000
6.72E-06,0.800
6.74E-06,1.000
6.76E-06,1.000
6.78E-06,1.000
6.80E-06,1.000
6.82E-06,1.000
6.84E-06,0.600
6.86E-06,0.600
6.88E-06,0.800
6.90E-06,1.000
6.92E-06,0.600
6.94E-06,0.800
6.96E-06,1.000
6.98E-06,0.800
7.00E-06,1.000
7.02E-06,0.600
7.04E-06,0.800
7.06E-06,1.000
7.08E-06,0.800
7.10E-06,0.600
7.12E-06,0.800
7.14E-06,1.000
7.16E-06,0.600
7.18E-06,0.600
7.20E-06,0.800
7.22E-06,0.600
7.24E-06,0.800
7.26E-06,0.800
7.28E-06,1.000
7.30E-06,0.800
7.32E-06,1.000
7.34E-06,0.600
7.36E-06,0.800
7.38E-06,1.000
7.40E-06,0.800
7.42E-06,0.600
7.44E-06,0.600
7.46E-06,0.800
7.48E-06,0.600
7.50E-06,0.800
7.52E-06,1.000
7.54E-06,1.000
7.56E-06,0.600
7.58E-06,0.800
7.60E-06,1.000
7.62E-06,0.800
7.64E-06,0.800
7.66E-06,1.000
7.68E-06,0.800
7.70E-06,1.000
7.72E-06,1.000
7.74E-06,0.600
7.76E-06,0.800
7.78E-06,0.800
7.80E-06,1.000
7.82E-06,0.800
7.84E-06,1.000
7.86E-06,0.600
7.88E-06,0.800
7.90E-06,1.000
7.92E-06,0.800
7.94E-06,1.000
7.96E-06,0.600
7.98E-06,0.600
8.00E-06,0.800
8.02E-06,0.800
8.04E-06,0.800
8.06E-06,0.800
8.08E-06,0.800
8.10E-06,0.800
8.12E-06,1.000
8.14E-06,1.200
8.16E-06,3.000
8.18E-06,4.800
8.20E-06,5.800
8.22E-06,7.000
8.24E-06,7.800
8.26E-06,8.600
8.28E-06,9.200
8.30E-06,9.600
8.32E-06,10.000
8.34E-06,10.200
8.36E-06,10.600
8.38E-06,10.600
8.40E-06,10.800
8.42E-06,11.000
8.44E-06,11.000
8.46E-06,11.000
8.48E-06,11.200
8.50E-06,11.200
8.52E-06,11.000
8.54E-06,11.200
8.56E-06,11.200
8.58E-06,11.400
8.60E-06,11.400
8.62E-06,11.600
8.64E-06,11.400
8.66E-06,11.400
8.68E-06,11.200
8.70E-06,11.200
8.72E-06,11.200
8.74E-06,11.400
8.76E-06,11.400
8.78E-06,11.400
8.80E-06,11.400
8.82E-06,11.600
8.84E-06,11.400
8.86E-06,11.400
8.88E-06,11.200
8.90E-06,11.200
8.92E-06,11.400
8.94E-06,11.600
8.96E-06,11.800
8.98E-06,11.400
9.00E-06,11.400
9.02E-06,11.200
9.04E-06,11.200
9.06E-06,11.400
9.08E-06,11.400
9.10E-06,11.400
9.12E-06,11.400
9.14E-06,11.400
9.16E-06,11.400
9.18E-06,11.200
9.20E-06,11.400
9.22E-06,11.200
9.24E-06,11.200
9.26E-06,11.400
9.28E-06,11.400
9.30E-06,11.400
9.32E-06,11.400
9.34E-06,11.400
9.36E-06,11.400
9.38E-06,11.400
9.40E-06,11.400
9.42E-06,11.600
9.44E-06,11.400
9.46E-06,11.400
9.48E-06,11.200
9.50E-06,11.200
9.52E-06,11.400
9.54E-06,11.400
9.56E-06,11.400
9.58E-06,11.200
9.60E-06,11.200
9.62E-06,11.400
9.64E-06,11.400
9.66E-06,11.400
9.68E-06,11.400
9.70E-06,11.200
9.72E-06,11.400
9.74E-06,11.400
9.76E-06,11.400
9.78E-06,11.400
9.80E-06,11.400
9.82E-06,11.400
9.84E-06,11.400
9.86E-06,11.400
9.88E-06,11.400
9.90E-06,11.400
9.92E-06,11.400
9.94E-06,11.400
9.96E-06,11.200
9.98E-06,11.400
1.00E-05,11.400
1.00E-05,11.400
1.00E-05,11.400
1.01E-05,11.400
1.01E-05,11.200
1.01E-05,11.200
1.01E-05,11.200
1.01E-05,11.400
1.02E-05,11.400
1.02E-05,11.600
1.02E-05,11.600
1.02E-05,11.600
1.02E-05,11.400
1.03E-05,11.400
1.03E-05,11.400
1.03E-05,11.400
1.03E-05,11.200
1.03E-05,11.400
1.04E-05,11.400
1.04E-05,11.600
1.04E-05,11.400
1.04E-05,11.400
1.04E-05,11.400
1.05E-05,11.600
1.05E-05,11.400
1.05E-05,11.400
1.05E-05,11.200
1.05E-05,11.000
1.06E-05,11.400
1.06E-05,11.400
1.06E-05,11.400
1.06E-05,11.200
1.06E-05,11.400
1.07E-05,11.400
1.07E-05,11.000
1.07E-05,11.600
1.07E-05,11.400
1.07E-05,11.400
1.08E-05,11.400
1.08E-05,11.400
1.08E-05,11.400
1.08E-05,11.400
1.08E-05,11.400
1.09E-05,11.600
1.09E-05,11.000
1.09E-05,11.400
1.09E-05,11.400
1.09E-05,11.400
1.10E-05,11.400
1.10E-05,11.400
1.10E-05,11.600
1.10E-05,11.400
1.10E-05,11.400
1.11E-05,11.400
1.11E-05,11.400
1.11E-05,11.000
1.11E-05,11.400
1.11E-05,11.400
1.12E-05,11.400
1.12E-05,11.600
1.12E-05,11.400
1.12E-05,11.400
1.12E-05,11.400
1.13E-05,11.400
1.13E-05,11.400
1.13E-05,11.400
1.13E-05,11.400
1.13E-05,11.200
1.14E-05,11.200
1.14E-05,11.000
1.14E-05,11.400
1.14E-05,11.400
1.14E-05,11.400
1.15E-05,11.400
1.15E-05,11.400
1.15E-05,11.600
1.15E-05,11.600
1.15E-05,11.600
1.16E-05,11.400
1.16E-05,11.400
1.16E-05,11.400
1.16E-05,11.200
1.16E-05,11.400
1.17E-05,11.400
1.17E-05,11.400
1.17E-05,11.400
1.17E-05,11.400
1.17E-05,11.600
1.18E-05,11.600
1.18E-05,11.600
1.18E-05,11.600
1.18E-05,11.600
1.18E-05,11.400
1.19E-05,11.400
1.19E-05,11.400
1.19E-05,11.400
1.19E-05,11.600
1.19E-05,11.600
1.20E-05,11.400
1.20E-05,11.400
1.20E-05,11.600
1.20E-05,11.400
1.20E-05,11.400
1.21E-05,11.400
1.21E-05,11.400
1.21E-05,11.600
1.21E-05,11.600
1.21E-05,11.400
1.22E-05,11.400
1.22E-05,11.600
1.22E-05,11.200
1.22E-05,10.400
1.22E-05,9.400
1.23E-05,8.200
1.23E-05,7.200
1.23E-05,6.400
1.23E-05,5.200
1.23E-05,4.200
1.24E-05,3.800
1.24E-05,3.200
1.24E-05,2.400
1.24E-05,2.000
1.24E-05,1.600
1.25E-05,1.600
1.25E-05,1.200
1.25E-05,1.000
1.25E-05,1.200
1.25E-05,1.200
1.26E-05,1.200
1.26E-05,1.200
1.26E-05,1.200
1.26E-05,1.000
1.26E-05,1.200
1.27E-05,1.000
1.27E-05,0.600
1.27E-05,1.000
1.27E-05,1.200
1.27E-05,0.800
1.28E-05,1.000
1.28E-05,0.600
1.28E-05,1.000
1.28E-05,0.800
1.28E-05,0.800
1.29E-05,0.800
1.29E-05,1.000
1.29E-05,0.800
1.29E-05,0.800
1.29E-05,0.800
1.30E-05,0.800
1.30E-05,1.000
1.30E-05,0.800
1.30E-05,0.600
1.30E-05,1.200
1.31E-05,0.800
1.31E-05,0.800
1.31E-05,1.000
1.31E-05,0.800
1.31E-05,1.000
1.32E-05,1.000
1.32E-05,0.600
1.32E-05,0.800
1.32E-05,0.800
1.32E-05,0.800
1.33E-05,1.000
1.33E-05,0.800
1.33E-05,0.600
1.33E-05,0.600
1.33E-05,0.800
1.34E-05,0.800
1.34E-05,1.000
1.34E-05,0.800
1.34E-05,0.600
1.34E-05,0.800
1.35E-05,0.600
1.35E-05,0.800
1.35E-05,0.600
1.35E-05,0.800
1.35E-05,1.000
1.36E-05,1.000
1.36E-05,0.600
1.36E-05,0.600
1.36E-05,0.800
1.36E-05,0.600
1.37E-05,0.800
1.37E-05,0.600
1.37E-05,0.800
1.37E-05,0.800
1.37E-05,1.000
1.38E-05,0.800
1.38E-05,0.800
1.38E-05,0.800
1.38E-05,0.800
1.38E-05,0.800
1.39E-05,1.000
1.39E-05,0.800
1.39E-05,1.000
1.39E-05,1.000
1.39E-05,1.000
1.40E-05,0.600
1.40E-05,0.600
1.40E-05,0.800
1.40E-05,1.000
1.40E-05,0.600
1.41E-05,0.600
1.41E-05,0.800
1.41E-05,1.000
1.41E-05,0.600
1.41E-05,0.600
1.42E-05,0.800
1.42E-05,1.000
1.42E-05,0.600
1.42E-05,0.600
1.42E-05,0.800
1.43E-05,1.000
1.43E-05,1.000
1.43E-05,1.000
1.43E-05,1.000
1.43E-05,1.000
1.44E-05,1.000
1.44E-05,1.000
1.44E-05,1.000
1.44E-05,1.000
1.44E-05,1.000
1.45E-05,1.000
1.45E-05,1.000
1.45E-05,0.600
1.45E-05,0.600
1.45E-05,0.800
1.46E-05,0.800
1.46E-05,0.800
1.46E-05,0.800
1.46E-05,0.800
1.46E-05,0.800
1.47E-05,0.800
1.47E-05,0.800
1.47E-05,0.800
1.47E-05,1.000
1.47E-05,0.800
1.48E-05,0.800
1.48E-05,0.800
1.48E-05,0.800
1.48E-05,0.800
1.48E-05,1.000
1.49E-05,0.800
1.49E-05,0.800
1.49E-05,0.800
1.49E-05,0.800
1.49E-05,1.000
1.50E-05,0.800
1.50E-05,0.600
1.50E-05,0.800
1.50E-05,0.600
1.50E-05,0.600
1.51E-05,0.800
1.51E-05,0.600
1.51E-05,0.600
1.51E-05,0.800
1.51E-05,0.600
1.52E-05,0.800
1.52E-05,0.800
1.52E-05,0.800
1.52E-05,0.800
1.52E-05,1.000
1.53E-05,0.800
1.53E-05,0.800
1.53E-05,0.800
1.53E-05,0.800
1.53E-05,0.800
1.54E-05,0.800
1.54E-05,1.000
1.54E-05,0.800
1.54E-05,1.000
1.54E-05,1.000
1.55E-05,1.000
1.55E-05,0.600
1.55E-05,0.600
1.55E-05,0.800
1.55E-05,0.600
1.56E-05,0.600
1.56E-05,0.800
1.56E-05,0.600
1.56E-05,0.800
1.56E-05,0.600
1.57E-05,0.600
1.57E-05,0.800
1.57E-05,1.000
1.57E-05,0.600
1.57E-05,0.600
1.58E-05,0.800
1.58E-05,0.800
1.58E-05,1.000
1.58E-05,0.800
1.58E-05,1.000
1.59E-05,1.000
1.59E-05,0.600
1.59E-05,0.800
1.59E-05,1.000
1.59E-05,0.800
1.60E-05,1.000
1.60E-05,0.600
1.60E-05,0.800
1.60E-05,1.000
1.60E-05,0.800
1.61E-05,1.000
1.61E-05,1.000
1.61E-05,1.600
1.61E-05,3.600
1.61E-05,5.200
1.62E-05,6.200
1.62E-05,7.400
1.62E-05,8.200
1.62E-05,8.600
1.62E-05,9.400
1.63E-05,9.800
1.63E-05,10.000
1.63E-05,10.200
1.63E-05,10.400
1.63E-05,10.600
1.64E-05,10.800
1.64E-05,11.000
1.64E-05,11.000
1.64E-05,11.200
1.64E-05,11.200
1.65E-05,11.200
1.65E-05,11.400
1.65E-05,11.200
1.65E-05,11.400
1.65E-05,11.400
1.66E-05,11.400
1.66E-05,11.400
1.66E-05,11.400
1.66E-05,11.400
1.66E-05,11.400
1.67E-05,11.200
1.67E-05,11.600
1.67E-05,11.400
1.67E-05,11.600
1.67E-05,11.400
1.68E-05,11.200
1.68E-05,11.400
1.68E-05,11.400
1.68E-05,11.400
1.68E-05,11.400
1.69E-05,11.400
1.69E-05,11.400
1.69E-05,11.400
1.69E-05,11.400
1.69E-05,11.400
1.70E-05,11.400
1.70E-05,11.400
1.70E-05,11.400
1.70E-05,11.400
1.70E-05,11.400
1.71E-05,11.400
1.71E-05,11.600
1.71E-05,11.400
1.71E-05,11.400
1.71E-05,11.400
1.72E-05,11.400
1.72E-05,11.400
1.72E-05,11.400
1.72E-05,11.400
1.72E-05,11.400
1.73E-05,11.400
1.73E-05,11.600
1.73E-05,11.600
1.73E-05,11.400
1.73E-05,11.400
1.74E-05,11.400
1.74E-05,11.400
1.74E-05,11.400
1.74E-05,11.600
1.74E-05,11.600
1.75E-05,11.400
1.75E-05,11.400
1.75E-05,11.400
1.75E-05,11.400
1.75E-05,11.400
1.76E-05,11.400
1.76E-05,11.200
1.76E-05,11.400
1.76E-05,11.400
1.76E-05,11.400
1.77E-05,11.400
1.77E-05,11.200
1.77E-05,11.400
1.77E-05,11.400
1.77E-05,11.400
1.78E-05,11.400
1.78E-05,11.200
1.78E-05,11.400
1.78E-05,11.400
1.78E-05,11.400
1.79E-05,11.400
1.79E-05,11.400
1.79E-05,11.400
1.79E-05,11.200
1.79E-05,11.400
1.80E-05,11.400
1.80E-05,11.400
1.80E-05,11.200
1.80E-05,11.400
1.80E-05,11.400
1.81E-05,11.400
1.81E-05,11.400
1.81E-05,11.400
1.81E-05,11.400
1.81E-05,11.400
1.82E-05,11.600
1.82E-05,11.600
1.82E-05,11.400
1.82E-05,11.400
1.82E-05,11.400
1.83E-05,11.400
1.83E-05,11.400
1.83E-05,11.400
1.83E-05,11.600
1.83E-05,11.400
1.84E-05,11.400
1.84E-05,11.400
1.84E-05,11.400
1.84E-05,11.000
1.84E-05,11.400
1.85E-05,11.400
1.85E-05,11.200
1.85E-05,11.400
1.85E-05,11.200
1.85E-05,11.400
1.86E-05,11.200
1.86E-05,11.400
1.86E-05,11.400
1.86E-05,11.400
1.86E-05,11.400
1.87E-05,11.000
1.87E-05,11.200
1.87E-05,11.200
1.87E-05,11.400
1.87E-05,11.400
1.88E-05,11.400
1.88E-05,11.400
1.88E-05,11.400
1.88E-05,11.400
1.88E-05,11.600
1.89E-05,11.400
1.89E-05,11.400
1.89E-05,11.200
1.89E-05,11.200
1.89E-05,11.200
1.90E-05,11.200
1.90E-05,11.200
1.90E-05,11.400
1.90E-05,11.400
1.90E-05,11.400
1.91E-05,11.400
1.91E-05,11.400
1.91E-05,11.000
1.91E-05,11.400
1.91E-05,11.200
1.92E-05,11.400
1.92E-05,11.400
1.92E-05,11.400
1.92E-05,11.400
1.92E-05,11.400
1.93E-05,11.400
1.93E-05,11.400
1.93E-05,11.400
1.93E-05,11.400
1.93E-05,11.400
1.94E-05,11.200
1.94E-05,11.200
1.94E-05,11.200
1.94E-05,11.000
1.94E-05,11.200
1.95E-05,11.400
1.95E-05,11.400
1.95E-05,11.600
1.95E-05,11.400
1.95E-05,11.400
1.96E-05,11.400
1.96E-05,11.400
1.96E-05,11.400
1.96E-05,11.400
1.96E-05,11.400
1.97E-05,11.400
1.97E-05,11.400
1.97E-05,11.400
1.97E-05,11.400
1.97E-05,11.400
1.98E-05,11.200
1.98E-05,11.400
1.98E-05,11.400
1.98E-05,11.400
1.98E-05,11.400
1.99E-05,11.200
1.99E-05,11.200
1.99E-05,11.200
1.99E-05,11.400
1.99E-05,11.600
2.00E-05,11.400
2.00E-05,11.400
2.00E-05,11.400
2.00E-05,11.400
2.00E-05,11.600
2.01E-05,11.600
2.01E-05,11.400
2.01E-05,11.400
2.01E-05,11.800
2.01E-05,11.600
2.02E-05,11.000
2.02E-05,10.200
2.02E-05,9.600
2.02E-05,8.400
2.02E-05,7.000
2.03E-05,6.000
2.03E-05,5.200
2.03E-05,4.600
2.03E-05,3.800
2.03E-05,3.200
2.04E-05,2.400
2.04E-05,2.000
2.04E-05,1.600
2.04E-05,1.400
2.04E-05,1.200
2.05E-05,1.200
2.05E-05,1.200
2.05E-05,1.400
2.05E-05,1.000
2.05E-05,0.800
2.06E-05,1.000
2.06E-05,1.000
2.06E-05,0.800
2.06E-05,1.000
2.06E-05,1.200
2.07E-05,0.800
2.07E-05,0.800
2.07E-05,0.800
2.07E-05,1.000
2.07E-05,1.000
2.08E-05,1.000
2.08E-05,1.000
2.08E-05,0.600
2.08E-05,0.800
2.08E-05,0.800
2.09E-05,1.000
2.09E-05,0.800
2.09E-05,0.800
2.09E-05,0.800
2.09E-05,0.800
2.10E-05,1.000
2.10E-05,0.800
2.10E-05,0.600
2.10E-05,0.800
2.10E-05,0.600
2.11E-05,0.800
2.11E-05,0.800
2.11E-05,1.000
2.11E-05,0.800
2.11E-05,1.000
2.12E-05,0.600
2.12E-05,0.800
2.12E-05,0.800
2.12E-05,0.800
2.12E-05,1.000
2.13E-05,0.800
2.13E-05,0.800
2.13E-05,1.000
2.13E-05,0.800
2.13E-05,1.000
2.14E-05,1.000
2.14E-05,0.600
2.14E-05,0.800
2.14E-05,0.800
2.14E-05,1.000
2.15E-05,0.800
2.15E-05,0.800
2.15E-05,1.000
2.15E-05,0.800
2.15E-05,0.600
2.16E-05,0.800
2.16E-05,1.000
2.16E-05,0.600
2.16E-05,0.600
2.16E-05,0.800
2.17E-05,0.800
2.17E-05,1.000
2.17E-05,0.800
2.17E-05,0.600
2.17E-05,0.800
2.18E-05,1.000
2.18E-05,0.800
2.18E-05,0.800
2.18E-05,1.000
2.18E-05,0.800
2.19E-05,0.600
2.19E-05,0.800
2.19E-05,1.000
2.19E-05,0.800
2.19E-05,0.600
2.20E-05,0.800
2.20E-05,0.800
2.20E-05,1.000
2.20E-05,0.800
2.20E-05,0.800
2.21E-05,1.000
2.21E-05,0.800
2.21E-05,0.800
2.21E-05,0.800
2.21E-05,0.800
2.22E-05,0.800
2.22E-05,0.800
2.22E-05,1.000
2.22E-05,0.800
2.22E-05,0.600
2.23E-05,0.800
2.23E-05,0.600
2.23E-05,0.800
2.23E-05,0.800
2.23E-05,1.000
2.24E-05,0.800
2.24E-05,0.600
2.24E-05,0.800
2.24E-05,0.600
2.24E-05,0.800
2.25E-05,0.800
2.25E-05,0.800
2.25E-05,1.000
2.25E-05,0.800
2.25E-05,1.000
2.26E-05,0.600
2.26E-05,0.600
2.26E-05,0.800
2.26E-05,0.600
2.26E-05,0.800
2.27E-05,0.800
2.27E-05,1.000
2.27E-05,0.800
2.27E-05,0.600
2.27E-05,0.800
2.28E-05,0.800
2.28E-05,0.800
2.28E-05,1.000
2.28E-05,0.800
2.28E-05,0.600
2.29E-05,0.800
2.29E-05,0.600
2.29E-05,0.800
2.29E-05,0.600
2.29E-05,0.600
2.30E-05,0.800
2.30E-05,1.000
2.30E-05,0.600
2.30E-05,0.600
2.30E-05,0.800
2.31E-05,0.600
2.31E-05,0.600
2.31E-05,0.800
2.31E-05,0.600
2.31E-05,0.800
2.32E-05,0.600
2.32E-05,0.800
2.32E-05,1.000
2.32E-05,0.800
2.32E-05,1.000
2.33E-05,1.000
2.33E-05,0.600
2.33E-05,0.800
2.33E-05,1.000
2.33E-05,0.800
2.34E-05,1.000
2.34E-05,1.000
2.34E-05,1.000
2.34E-05,0.600
2.34E-05,0.800
2.35E-05,1.000
2.35E-05,0.800
2.35E-05,0.600
2.35E-05,0.600
2.35E-05,0.800
2.36E-05,0.600
2.36E-05,0.600
2.36E-05,0.800
2.36E-05,1.000
2.36E-05,1.000
2.37E-05,1.000
2.37E-05,1.000
2.37E-05,0.600
2.37E-05,0.800
2.37E-05,1.000
2.38E-05,0.800
2.38E-05,0.800
2.38E-05,0.800
2.38E-05,0.800
2.38E-05,1.000
2.39E-05,0.800
2.39E-05,0.600
2.39E-05,0.800
2.39E-05,0.600
2.39E-05,0.800
2.40E-05,1.000
2.40E-05,1.000
2.40E-05,0.600
2.40E-05,0.600
2.40E-05,0.800
2.41E-05,1.200
2.41E-05,3.200
2.41E-05,5.000
2.41E-05,6.400
2.41E-05,7.200
2.42E-05,7.800
2.42E-05,8.600
2.42E-05,9.200
2.42E-05,9.600
2.42E-05,10.000
2.43E-05,10.200
2.43E-05,10.400
2.43E-05,10.400
2.43E-05,10.600
2.43E-05,10.800
2.44E-05,10.800
2.44E-05,10.800
2.44E-05,11.200
2.44E-05,11.200
2.44E-05,11.000
2.45E-05,11.400
2.45E-05,11.400
2.45E-05,11.400
2.45E-05,11.400
2.45E-05,11.200
2.46E-05,11.200
2.46E-05,11.400
2.46E-05,11.200
2.46E-05,11.400
2.46E-05,11.400
2.47E-05,11.600
2.47E-05,11.400
2.47E-05,11.400
2.47E-05,11.600
2.47E-05,11.400
2.48E-05,11.400
2.48E-05,11.400
2.48E-05,11.400
2.48E-05,11.600
2.48E-05,11.400
2.49E-05,11.400
2.49E-05,11.400
2.49E-05,11.400
2.49E-05,11.200
2.49E-05,11.400
2.50E-05,11.400
2.50E-05,11.600
2.50E-05,11.600
2.50E-05,11.400
2.50E-05,11.400
2.51E-05,11.200
2.51E-05,11.400
2.51E-05,11.400
2.51E-05,11.600
2.51E-05,11.600
2.52E-05,11.400
2.52E-05,11.400
2.52E-05,11.200
2.52E-05,11.400
2.52E-05,11.400
2.53E-05,11.400
2.53E-05,11.400
2.53E-05,11.400
2.53E-05,11.200
2.53E-05,11.200
2.54E-05,11.400
2.54E-05,11.400
2.54E-05,11.400
2.54E-05,11.400
2.54E-05,11.400
2.55E-05,11.400
2.55E-05,11.400
2.55E-05,11.400
2.55E-05,11.400
2.55E-05,11.400
2.56E-05,11.400
2.56E-05,11.200
2.56E-05,11.200
2.56E-05,11.200
2.56E-05,11.400
2.57E-05,11.400
2.57E-05,11.600
2.57E-05,11.400
